Division,WeightClassKg,Place,Name,Team,BodyweightKg,Best3SquatKg,Best3BenchKg,Best3DeadliftKg,TotalKg,Equipment,Event,Sex
Boys,55.79,1,Cassius Fitzpatrick,Denison,51.89,149.69,92.99,161.03,403.7,Single-ply,SBD,M
Boys,51.71,2,Gerald Van Ess,McKinney North,50.26,120.2,63.5,115.67,299.37,Single-ply,SBD,M
Boys,51.71,3,Skyler Packard,McKinney,50.03,113.4,58.97,120.2,292.57,Single-ply,SBD,M
Boys,51.71,4,Jesse Couch,Denison,51.07,88.45,52.16,106.59,247.21,Single-ply,SBD,M
Boys,51.71,5,Brian Heyns,McKinney North,49.53,77.11,52.16,97.52,226.8,Single-ply,SBD,M
Boys,51.71,6,Cordel Keller,McKinney North,51.71,72.57,40.82,111.13,224.53,Single-ply,SBD,M
Boys,51.71,7,Bailey Forst,Frisco Heritage,47.94,72.57,45.36,90.72,208.65,Single-ply,SBD,M
Boys,55.79,1,Brandon Thomas,McKinney North,54.79,156.49,77.11,181.44,415.04,Single-ply,SBD,M
Boys,55.79,2,Toni Ogunsola,Frisco,55.2,158.76,83.91,161.03,403.7,Single-ply,SBD,M
Boys,55.79,3,Michael Robason,Frisco Wakeland,54.34,167.83,68.04,140.61,376.48,Single-ply,SBD,M
Boys,55.79,4,Andrew Wilson,Frisco Wakeland,55.25,124.74,74.84,131.54,331.12,Single-ply,SBD,M
Boys,55.79,5,Chris Raine,Frisco Liberty,53.16,102.06,72.57,108.86,283.5,Single-ply,SBD,M
Boys,55.79,6,Kolby Dodson,Frisco Centennial,53.61,77.11,63.5,113.4,254.01,Single-ply,SBD,M
Boys,59.87,1,Brandon Lewellan,Frisco Wakeland,59.74,151.95,68.04,147.42,367.41,Single-ply,SBD,M
Boys,59.87,2,Jacob Wantroba,Denison,59.47,124.74,77.11,136.08,337.93,Single-ply,SBD,M
Boys,59.87,3,Nathan Scoggins,Prosper,58.06,99.79,63.5,115.67,278.96,Single-ply,SBD,M
Boys,59.87,4,Carson Keller,McKinney North,56.79,102.06,52.16,117.93,272.16,Single-ply,SBD,M
Boys,59.87,5,Grayson Kulin,Frisco Heritage,59.01,88.45,52.16,113.4,254.01,Single-ply,SBD,M
Boys,74.84,1,Devaughn Childress,Frisco Wakeland,67.36,215.46,97.52,213.19,526.17,Single-ply,SBD,M
Boys,67.13,2,Bradley Beck,McKinney,66.68,195.04,124.74,192.78,512.56,Single-ply,SBD,M
Boys,67.13,3,Nick Baril,Frisco Centennial,65.18,181.44,113.4,158.76,453.59,Single-ply,SBD,M
Boys,67.13,4,Brady Adams,Frisco Wakeland,66.32,181.44,95.25,142.88,419.57,Single-ply,SBD,M
Boys,67.13,5,Re Knight,Frisco Centennial,64.09,172.37,90.72,145.15,408.23,Single-ply,SBD,M
Boys,67.13,6,Brock Merrick,McKinney,63.87,154.22,86.18,158.76,399.16,Single-ply,SBD,M
Boys,67.13,7,Chase Stout,Frisco Liberty,61.64,131.54,92.99,147.42,371.95,Single-ply,SBD,M
Boys,67.13,8,Chris Jackson,Prosper,65.41,129.27,90.72,136.08,356.07,Single-ply,SBD,M
Boys,67.13,9,Darrell Reese,Frisco Liberty,61.37,113.4,68.04,136.08,317.51,Single-ply,SBD,M
Boys,67.13,DQ,Blake Weaver,Frisco Heritage,62.19,,,,,Single-ply,SBD,M
Boys,74.84,1,Ivan Sauerzopf,Frisco Lone Star,73.44,199.58,124.74,204.12,528.44,Single-ply,SBD,M
Boys,74.84,2,Mason Pierce,Frisco Centennial,72.08,201.85,108.86,199.58,510.29,Single-ply,SBD,M
Boys,74.84,3,Trevor Wilson,Frisco Centennial,73.57,170.1,102.06,170.1,442.25,Single-ply,SBD,M
Boys,74.84,4,Matthew Carrillo,Frisco Centennial,67.9,165.56,90.72,158.76,415.04,Single-ply,SBD,M
Boys,74.84,5,Clayton Lambert,McKinney North,73.84,151.95,90.72,172.37,415.04,Single-ply,SBD,M
Boys,74.84,6,Trent Dillard,Prosper,72.39,149.69,90.72,165.56,405.97,Single-ply,SBD,M
Boys,74.84,7,Connor Thompson,Prosper,74.16,142.88,108.86,149.69,401.43,Single-ply,SBD,M
Boys,74.84,8,Brady Peterson,Prosper,73.53,136.08,86.18,172.37,394.63,Single-ply,SBD,M
Boys,74.84,9,Taylor Fann,McKinney Boyd,70.17,142.88,86.18,158.76,387.82,Single-ply,SBD,M
Boys,74.84,10,Wade Woodard,Prosper,73.03,145.15,108.86,131.54,385.55,Single-ply,SBD,M
Boys,82.1,11,Neal Botteron,Frisco Heritage,75.07,120.2,108.86,147.42,376.48,Single-ply,SBD,M
Boys,74.84,12,Nick Hintz,Frisco Heritage,73.07,140.61,86.18,147.42,374.21,Single-ply,SBD,M
Boys,74.84,13,Curtis Flowers,Frisco,69.85,151.95,79.38,136.08,367.41,Single-ply,SBD,M
Boys,74.84,14,Jake LaGrasso,Frisco Heritage,70.76,97.52,63.5,113.4,274.42,Single-ply,SBD,M
Boys,74.84,DQ,Hayden Pierce,Frisco Heritage,72.76,129.27,,,,Single-ply,SBD,M
Boys,82.1,1,Collin Charles,Frisco Heritage,78.56,226.8,136.08,256.28,619.15,Single-ply,SBD,M
Boys,82.1,2,Justin Jones,McKinney North,78.52,206.38,113.4,206.38,526.17,Single-ply,SBD,M
Boys,82.1,3,Colton Hensley,Denison,76.29,174.63,111.13,208.65,494.42,Single-ply,SBD,M
Boys,82.1,4,Alex Marr,Frisco Wakeland,80.78,179.17,111.13,181.44,471.74,Single-ply,SBD,M
Boys,82.1,5,Jadin Lewis,Frisco Centennial,79.24,179.17,115.67,172.37,467.2,Single-ply,SBD,M
Boys,82.1,6,Carlos Guzman,Prosper,81.33,183.7,108.86,174.63,467.2,Single-ply,SBD,M
Boys,82.1,7,Justin McVeigh,Frisco Liberty,79.47,167.83,111.13,174.63,453.59,Single-ply,SBD,M
Boys,82.1,8,Robert Merryfield,Frisco Heritage,78.06,158.76,88.45,181.44,428.64,Single-ply,SBD,M
Boys,82.1,9,Matt Dodson,McKinney Boyd,77.56,142.88,104.33,156.49,403.7,Single-ply,SBD,M
Boys,82.1,10,Dedrick Scrivens,McKinney Boyd,76.52,151.95,90.72,156.49,399.16,Single-ply,SBD,M
Boys,82.1,11,Mason Brewer,Frisco,80.97,147.42,90.72,147.42,385.55,Single-ply,SBD,M
Boys,82.1,12,David Koenig,Frisco Lone Star,77.38,127.01,90.72,149.69,367.41,Single-ply,SBD,M
Boys,82.1,13,Deon Kingston,Frisco,78.29,124.74,88.45,147.42,360.61,Single-ply,SBD,M
Boys,99.79,1,Nick Sepper,Frisco Wakeland,89.86,219.99,111.13,195.04,526.17,Single-ply,SBD,M
Boys,89.81,2,Frankie Jesse,Frisco,86.55,185.97,136.08,185.97,508.02,Single-ply,SBD,M
Boys,89.81,3,Travis Wendt,Frisco Liberty,87.91,165.56,138.35,174.63,478.54,Single-ply,SBD,M
Boys,89.81,4,Nick Romano,McKinney Boyd,86.82,188.24,106.59,174.63,469.47,Single-ply,SBD,M
Boys,89.81,5,Jonathan Simpson,Frisco Lone Star,85.91,161.03,104.33,163.29,428.64,Single-ply,SBD,M
Boys,89.81,6,Donavan Baca,Frisco,85.32,149.69,92.99,181.44,424.11,Single-ply,SBD,M
Boys,89.81,7,Erick Perez,Frisco Liberty,88.31,226.8,142.88,,369.68,Single-ply,SB,M
Boys,89.81,DQ,Corbin Diaz,Frisco Lone Star,84.37,,,,,Single-ply,SB,M
Boys,99.79,1,Tyler Carver,Frisco Wakeland,99.2,231.33,151.95,210.92,594.21,Single-ply,SBD,M
Boys,99.79,2,Clay Eppler,Denison,97.07,204.12,151.95,229.06,585.13,Single-ply,SBD,M
Boys,99.79,3,Keenan Samual,McKinney,95.07,215.46,111.13,201.85,528.44,Single-ply,SBD,M
Boys,99.79,4,Sean Yoo,McKinney North,91.35,208.65,113.4,199.58,521.63,Single-ply,SBD,M
Boys,99.79,5,Josh Heath,Denison,97.07,208.65,115.67,195.04,519.36,Single-ply,SBD,M
Boys,99.79,6,Johnny Le,Frisco Centennial,93.21,210.92,120.2,183.7,514.83,Single-ply,SBD,M
Boys,99.79,7,Emmit Morgan,Frisco Centennial,95.75,195.04,129.27,188.24,512.56,Single-ply,SBD,M
Boys,99.79,8,Brandon Behrens,Prosper,94.3,185.97,124.74,190.51,501.22,Single-ply,SBD,M
Boys,99.79,9,Dakota Lincoln,Frisco Wakeland,96.03,192.78,117.93,167.83,478.54,Single-ply,SBD,M
Boys,99.79,10,Logan Teel,McKinney North,91.99,181.44,102.06,181.44,464.93,Single-ply,SBD,M
Boys,99.79,11,Paine Matiscik,McKinney Boyd,91.67,185.97,113.4,158.76,458.13,Single-ply,SBD,M
Boys,99.79,12,Dolan Motter,Frisco,99.38,181.44,102.06,170.1,453.59,Single-ply,SBD,M
Boys,99.79,13,Isaac Luviano,McKinney,94.62,163.29,104.33,181.44,449.06,Single-ply,SBD,M
Boys,99.79,14,Chris Robinson #6,Frisco,93.49,181.44,106.59,136.08,424.11,Single-ply,SBD,M
Boys,99.79,15,Tyler Ferguson,McKinney Boyd,92.22,154.22,95.25,167.83,417.3,Single-ply,SBD,M
Boys,99.79,16,Zach Jensen,Frisco Lone Star,94.21,115.67,92.99,117.93,326.59,Single-ply,SBD,M
Boys,109.77,1,Connor Counce,Denison,108.32,288.03,142.88,260.82,691.73,Single-ply,SBD,M
Boys,109.77,2,Jayden Stumbaugh,Denison,107.95,231.33,138.35,231.33,601.01,Single-ply,SBD,M
Boys,109.77,3,Alex Gilani,Frisco Liberty,106.5,226.8,111.13,201.85,539.77,Single-ply,SBD,M
Boys,109.77,4,Jeremy Seligsohn,Frisco Wakeland,106.23,226.8,111.13,199.58,537.51,Single-ply,SBD,M
Boys,109.77,5,Kevin Salas,Prosper,101.02,192.78,154.22,181.44,528.44,Single-ply,SBD,M
Boys,109.77,6,Uche Ugwanze,McKinney North,109.32,219.99,97.52,201.85,519.36,Single-ply,SBD,M
Boys,109.77,7,Austin Horton,McKinney North,107.14,204.12,111.13,197.31,512.56,Single-ply,SBD,M
Boys,109.77,8,KJ Smith,Frisco Centennial,107.82,181.44,142.88,181.44,505.76,Single-ply,SBD,M
Boys,109.77,9,Ahmon Mayes,Prosper,106.59,192.78,111.13,195.04,498.95,Single-ply,SBD,M
Boys,109.77,10,Alex Shaheen,McKinney Boyd,103.56,204.12,113.4,170.1,487.61,Single-ply,SBD,M
Boys,109.77,11,Hayden Lusk,McKinney Boyd,106.73,183.7,117.93,149.69,451.32,Single-ply,SBD,M
Boys,109.77,12,Matt Spradling,McKinney,109.04,183.7,108.86,158.76,451.32,Single-ply,SBD,M
Boys,109.77,13,Cooper Carson,McKinney,106.82,181.44,86.18,170.1,437.72,Single-ply,SBD,M
Boys,109.77,14,Jordan Noriega,Frisco,105.05,174.63,99.79,147.42,421.84,Single-ply,SBD,M
Boys,109.77,15,Josh Williams,McKinney Boyd,107.46,151.95,99.79,163.29,415.04,Single-ply,SBD,M
Boys,109.77,16,Blake Graves,Frisco,102.69,147.42,99.79,145.15,392.36,Single-ply,SBD,M
Boys,109.77,17,Fritz Hull,Prosper,108.68,204.12,129.27,,333.39,Single-ply,SB,M
Boys,109.77,18,Cole Bryant,Frisco Liberty,104.6,183.7,124.74,,308.44,Single-ply,SB,M
Boys,109.77,DQ,Philip Smith,Frisco Liberty,101.7,192.78,,,,Single-ply,SB,M
Boys,109.77,DQ,Jack Ray,Frisco Lone Star,106.19,,,,,Single-ply,SB,M
Boys,124.74,1,Jaymes Stumbaugh,Denison,119.16,238.14,142.88,215.46,596.47,Single-ply,SBD,M
Boys,124.74,2,Justin Bigelow,Denison,114.76,229.06,124.74,195.04,548.85,Single-ply,SBD,M
Boys,124.74,3,Dominic Cabera,Frisco Wakeland,120.88,231.33,115.67,199.58,546.58,Single-ply,SBD,M
Boys,124.74,4,Alex Nguyen,Frisco,111.45,204.12,136.08,197.31,537.51,Single-ply,SBD,M
Boys,124.74,5,Broderick Jenkins,Frisco Centennial,117.89,183.7,115.67,165.56,464.93,Single-ply,SBD,M
Boys,124.74,6,Jeff Forst,Frisco Heritage,110.99,176.9,92.99,183.7,453.59,Single-ply,SBD,M
Boys,124.74,7,Matt Morse,McKinney Boyd,120.79,172.37,102.06,172.37,446.79,Single-ply,SBD,M
Boys,124.74,8,John Shuster,McKinney,113.49,161.03,99.79,181.44,442.25,Single-ply,SBD,M
Boys,124.74,9,Nick Natour,Frisco Lone Star,114.26,133.81,111.13,149.69,394.63,Single-ply,SBD,M
Boys,124.74,10,Lohit Adusummilli,Frisco Heritage,111.58,138.35,92.99,161.03,392.36,Single-ply,SBD,M
Boys,124.74+,DQ,Blake Cunningham,Denison,136.71,195.04,106.59,,,Single-ply,SBD,M
