Division,WeightClassKg,Place,Name,Team,BodyweightKg,Best3SquatKg,Best3BenchKg,Best3DeadliftKg,TotalKg,Equipment,Event,Sex
Boys,51.71,1,Toby Crabb,Slaton,50.8,99.79,70.31,113.4,283.5,Single-ply,SBD,M
Boys,55.79,1,Brennan Riker,Post,53.98,170.1,95.25,147.42,412.77,Single-ply,SBD,M
Boys,55.79,2,Tay Tay Flowers,Slaton,55.07,127.01,63.5,156.49,347,Single-ply,SBD,M
Boys,59.87,1,Josh Chavarin,Slaton,58.6,147.42,77.11,181.44,405.97,Single-ply,SBD,M
Boys,59.87,2,Landen Simmons,Slaton,59.69,161.03,88.45,154.22,403.7,Single-ply,SBD,M
Boys,59.87,3,Andrew Gonzales,Floydada,59.42,129.27,86.18,149.69,365.14,Single-ply,SBD,M
Boys,59.87,4,Mark Reyna,Sundown,59.24,136.08,77.11,145.15,358.34,Single-ply,SBD,M
Boys,67.13,1,Chris Rader,Slaton,65.5,158.76,88.45,163.29,410.5,Single-ply,SBD,M
Boys,67.13,2,Jose Lira,Floydada,64.95,161.03,97.52,149.69,408.23,Single-ply,SBD,M
Boys,67.13,3,Eddy Betencourt,Slaton,66.5,133.81,86.18,185.97,405.97,Single-ply,SBD,M
Boys,67.13,4,Case Garrett,Lubbock Roosevelt,65.32,120.2,104.33,167.83,392.36,Single-ply,SBD,M
Boys,67.13,5,Grayson Richardson,Sundown,66.95,142.88,86.18,158.76,387.82,Single-ply,SBD,M
Boys,67.13,6,Pablo Gonzales,Olton,64.95,136.08,83.91,147.42,367.41,Single-ply,SBD,M
Boys,67.13,7,Mark Casias,Lubbock Roosevelt,62.69,133.81,79.38,147.42,360.61,Single-ply,SBD,M
Boys,67.13,8,Landon Pevey,Post,65.68,120.2,77.11,122.47,319.78,Single-ply,SBD,M
Boys,67.13,9,Joseph George,Tahoka,65.59,104.33,49.9,136.08,290.3,Single-ply,SBD,M
Boys,67.13,10,Brady Pierce,Lubbock Cooper,66.5,102.06,58.97,124.74,285.76,Single-ply,SBD,M
Boys,67.13,11,Thomas Sullivan,Tahoka,61.23,83.91,52.16,124.74,260.82,Single-ply,SBD,M
Boys,74.84,1,Aldo Vasquez,Olton,73.39,192.78,111.13,183.7,487.61,Single-ply,SBD,M
Boys,74.84,2,Isaih Landa,Post,73.84,181.44,113.4,181.44,476.27,Single-ply,SBD,M
Boys,74.84,3,Brandon Kenley,Sundown,70.85,161.03,83.91,174.63,419.57,Single-ply,SBD,M
Boys,74.84,4,Alex Trevino,Lubbock Roosevelt,71.67,158.76,79.38,165.56,403.7,Single-ply,SBD,M
Boys,74.84,5,Dylan Quintero,Tahoka,74.48,138.35,79.38,176.9,394.63,Single-ply,SBD,M
Boys,74.84,6,Aldo Mendoza,Post,69.4,149.69,95.25,142.88,387.82,Single-ply,SBD,M
Boys,74.84,7,Loyd Eustace,Lubbock Roosevelt,69.85,147.42,77.11,158.76,383.29,Single-ply,SBD,M
Boys,74.84,8,John Stone,Tahoka,67.31,127.01,74.84,163.29,365.14,Single-ply,SBD,M
Boys,74.84,9,Ethan Fox,Post,71.58,145.15,79.38,138.35,362.87,Single-ply,SBD,M
Boys,74.84,10,Nick Quintana,Post,72.76,140.61,79.38,142.88,362.87,Single-ply,SBD,M
Boys,74.84,11,Michael Scoggin,Tahoka,70.58,127.01,68.04,156.49,351.53,Single-ply,SBD,M
Boys,74.84,12,Bradley Baldridge,Sundown,72.39,124.74,68.04,131.54,324.32,Single-ply,SBD,M
Boys,74.84,13,Nick Caffey,Lubbock Roosevelt,73.75,104.33,68.04,131.54,303.91,Single-ply,SBD,M
Boys,74.84,14,Michael Garza,Lubbock Roosevelt,72.12,104.33,74.84,122.47,301.64,Single-ply,SBD,M
Boys,74.84,15,Christian Bartlett,Lubbock Roosevelt,73.21,102.06,63.5,136.08,301.64,Single-ply,SBD,M
Boys,74.84,DQ,Isaiah Rocha,Slaton,74.75,163.29,,,,Single-ply,SBD,M
Boys,82.1,1,Mike Delefuente,Floydada,79.11,185.97,102.06,195.04,483.08,Single-ply,SBD,M
Boys,82.1,2,Jj Diaz,Lubbock Roosevelt,76.75,170.1,111.13,181.44,462.66,Single-ply,SBD,M
Boys,82.1,3,Justin Self,Post,76.75,145.15,102.06,188.24,435.45,Single-ply,SBD,M
Boys,82.1,4,Manuel Soto,Tahoka,78.65,156.49,79.38,190.51,426.38,Single-ply,SBD,M
Boys,82.1,5,Alex Tew,Tahoka,78.29,136.08,74.84,176.9,387.82,Single-ply,SBD,M
Boys,82.1,6,Marcos Vargas,Sundown,80.47,129.27,72.57,142.88,344.73,Single-ply,SBD,M
Boys,89.81,1,Braxton Juardo,Shallowater,87.27,185.97,117.93,195.04,498.95,Single-ply,SBD,M
Boys,89.81,2,Cole Boren,Post,88.18,206.38,124.74,165.56,496.68,Single-ply,SBD,M
Boys,89.81,3,Zakary Gragson,Sundown,86.18,188.24,102.06,192.78,483.08,Single-ply,SBD,M
Boys,89.81,4,Jonathan Golightly,Sundown,86.27,190.51,113.4,176.9,480.81,Single-ply,SBD,M
Boys,89.81,5,Tj Payne,Slaton,88.18,183.7,83.91,174.63,442.25,Single-ply,SBD,M
Boys,89.81,6,Ryan Eller,Shallowater,84.55,161.03,102.06,176.9,439.98,Single-ply,SBD,M
Boys,89.81,7,Gabe Oglesby,Lubbock Cooper,89.63,158.76,90.72,188.24,437.72,Single-ply,SBD,M
Boys,89.81,8,Colton McCarty,Tahoka,88.09,136.08,72.57,174.63,383.29,Single-ply,SBD,M
Boys,89.81,9,Michael Baca,Lubbock Cooper,83.28,138.35,79.38,147.42,365.14,Single-ply,SBD,M
Boys,89.81,10,Ben McLarty,Lubbock Cooper,88.27,140.61,74.84,136.08,351.53,Single-ply,SBD,M
Boys,89.81,11,Ej Melendez,Olton,88.72,106.59,43.09,133.81,283.5,Single-ply,SBD,M
Boys,89.81,12,Keegan Wehrman,Lubbock Cooper,85,92.99,49.9,113.4,256.28,Single-ply,SBD,M
Boys,99.79,1,Chris Correa,Brownfield,96.43,204.12,122.47,204.12,530.7,Single-ply,SBD,M
Boys,99.79,2,Sergio Arazate,Shallowater,91.63,151.95,97.52,181.44,430.91,Single-ply,SBD,M
Boys,99.79,3,Malachi Christensen,Shallowater,92.53,167.83,95.25,151.95,415.04,Single-ply,SBD,M
Boys,99.79,4,Danny Garza,Brownfield,96.16,170.1,81.65,129.27,381.02,Single-ply,SBD,M
Boys,99.79,5,Brady Jacobs,Lubbock Cooper,94.62,129.27,56.7,136.08,322.05,Single-ply,SBD,M
Boys,99.79,DQ,Ramon Guerrero,Olton,90.36,136.08,,,,Single-ply,SBD,M
Boys,109.77,1,JC Pedroza,Olton,103.96,215.46,117.93,210.92,544.31,Single-ply,SBD,M
Boys,109.77,2,Jacob Johnston,Floydada,105.69,192.78,113.4,213.19,519.36,Single-ply,SBD,M
Boys,109.77,3,Christian Reyna,Tahoka,107.77,188.24,88.45,181.44,458.13,Single-ply,SBD,M
Boys,109.77,4,Elijah Olivo,Shallowater,104.42,183.7,102.06,167.83,453.59,Single-ply,SBD,M
Boys,109.77,5,Javier Flowers,Slaton,103.15,122.47,83.91,138.35,344.73,Single-ply,SBD,M
Boys,124.74,1,Tyler Underwood,Brownfield,113.04,158.76,120.2,163.29,442.25,Single-ply,SBD,M
Boys,124.74,2,Will Mott,Slaton,112.94,133.81,79.38,149.69,362.87,Single-ply,SBD,M
Boys,124.74,3,Ryan Olivan,Tahoka,117.84,145.15,77.11,140.61,362.87,Single-ply,SBD,M
Boys,124.74,4,John Peralez,Lubbock Cooper,109.86,120.2,83.91,136.08,340.19,Single-ply,SBD,M
Boys,124.74+,1,Taye Perez,Post,129.09,235.87,133.81,226.8,596.47,Single-ply,SBD,M
Boys,124.74+,2,Javen Diaz,Post,139.8,226.8,115.67,204.12,546.58,Single-ply,SBD,M
Boys,124.74+,3,Chris Jackson,Post,126.55,213.19,124.74,206.38,544.31,Single-ply,SBD,M
Boys,124.74+,4,Chase Rodriguez,Lubbock Cooper,144.24,208.65,122.47,195.04,526.17,Single-ply,SBD,M
