Division,WeightClassKg,Place,Name,Team,BodyweightKg,Best3SquatKg,Best3BenchKg,Best3DeadliftKg,TotalKg,Equipment,Event,Sex
Boys,51.71,1,Jaime Luna,Palmer,51.26,129.27,56.7,133.81,319.78,Single-ply,SBD,M
Boys,55.79,2,Danny De Los Santos,Red Oak Life,51.8,106.59,61.23,133.81,301.64,Single-ply,SBD,M
Boys,51.71,3,Austin Carter,Rio Vista,49.44,79.38,68.04,102.06,249.48,Single-ply,SBD,M
Boys,51.71,4,Parker Jackson,Blooming Grove,43,72.57,45.36,92.99,210.92,Single-ply,SBD,M
Boys,51.71,DQ,Martin Lopez,Maypearl,50.44,113.4,,,,Single-ply,SBD,M
Boys,59.87,1,Ezra Zepeda,Red Oak Life,55.88,127.01,68.04,156.49,351.53,Single-ply,SBD,M
Boys,55.79,2,Roberto Oropeza,Rice,55.25,127.01,77.11,142.88,347,Single-ply,SBD,M
Boys,55.79,3,Aditya Misra,Oakridge School,55.61,111.13,63.5,115.67,290.3,Single-ply,SBD,M
Boys,55.79,4,Ivan Navarro,Corsicana Mildred,52.44,99.79,49.9,122.47,272.16,Single-ply,SBD,M
Boys,55.79,5,D'Andre Cortez,Dallas Spruce,54.16,68.04,43.09,102.06,213.19,Single-ply,SBD,M
Boys,55.79,6,Stephen Edwards,Rice,52.62,68.04,36.29,102.06,206.38,Single-ply,SBD,M
Boys,59.87,1,Codie Pair,Rice,59.6,142.88,108.86,174.63,426.38,Single-ply,SBD,M
Boys,67.13,2,Juan Hernández #11,Mexia,60.06,149.69,92.99,165.56,408.23,Single-ply,SBD,M
Boys,59.87,3,Xavier Scott,Red Oak Life,59.87,161.03,74.84,167.83,403.7,Single-ply,SBD,M
Boys,59.87,4,Salvador Perez,Palmer,59.24,142.88,68.04,167.83,378.75,Single-ply,SBD,M
Boys,59.87,5,Max Snodgrass,Blooming Grove,58.68,133.81,77.11,165.56,376.48,Single-ply,SBD,M
Boys,67.13,6,Dylan Hooper,Oakridge School,60.06,113.4,58.97,136.08,308.44,Single-ply,SBD,M
Boys,67.13,7,Tj Davis,Maypearl,59.96,111.13,70.31,122.47,303.91,Single-ply,SBD,M
Boys,59.87,8,Tony Woods,Kerens,58.88,104.33,58.97,136.08,299.37,Single-ply,SBD,M
Boys,67.13,9,Adan Payne,Rice,60.06,102.06,61.23,102.06,265.35,Single-ply,SBD,M
Boys,67.13,1,David Calixtro,Teague,65.68,192.78,95.25,199.58,487.61,Single-ply,SBD,M
Boys,67.13,2,David Marez,Mexia,64.23,170.1,88.45,165.56,424.11,Single-ply,SBD,M
Boys,67.13,3,Colton Monroe,Blooming Grove,61.33,136.08,86.18,185.97,408.23,Single-ply,SBD,M
Boys,67.13,4,Jared Arey,Teague,65.95,156.49,86.18,158.76,401.43,Single-ply,SBD,M
Boys,67.13,5,Dalvin Gibson,Mexia,66.95,142.88,83.91,161.03,387.82,Single-ply,SBD,M
Boys,67.13,6,Ben Nicholson,Blooming Grove,64.32,149.69,83.91,142.88,376.48,Single-ply,SBD,M
Boys,67.13,7,Osvaldo Solis,Rice,65.59,154.22,90.72,129.27,374.21,Single-ply,SBD,M
Boys,67.13,8,Chandler Gordon,Hillsboro,66.32,138.35,92.99,138.35,369.68,Single-ply,SBD,M
Boys,67.13,9,Hayden Woods,Italy,66.77,142.88,81.65,145.15,369.68,Single-ply,SBD,M
Boys,67.13,10,Trevor Morgan,Red Oak Life,66.04,115.67,83.91,136.08,335.66,Single-ply,SBD,M
Boys,67.13,11,Jonathan Johnson,Dallas Spruce,61.51,102.06,97.52,131.54,331.12,Single-ply,SBD,M
Boys,67.13,12,Tristin LaChapple,Rice,63.14,136.08,81.65,113.4,331.12,Single-ply,SBD,M
Boys,67.13,13,Adrian Cooper,Red Oak Life,67.04,117.93,74.84,136.08,328.85,Single-ply,SBD,M
Boys,67.13,14,Blake Echols,Oakridge School,61.78,113.4,58.97,136.08,308.44,Single-ply,SBD,M
Boys,67.13,15,Tristian Nichols,Blooming Grove,63.78,108.86,65.77,133.81,308.44,Single-ply,SBD,M
Boys,67.13,16,Brady Barnett,Rio Vista,66.86,111.13,61.23,136.08,308.44,Single-ply,SBD,M
Boys,67.13,17,Quivante Rameriaz,Kerens,60.69,108.86,72.57,120.2,301.64,Single-ply,SBD,M
Boys,67.13,18,Jernon Hawley,Buffalo,62.69,92.99,54.43,83.91,231.33,Single-ply,SBD,M
Boys,67.13,19,Trey Sowell,Oakridge School,61.78,90.72,40.82,81.65,213.19,Single-ply,SBD,M
Boys,67.13,DQ,Travis Whiteside,Blooming Grove,66.59,,,,,Single-ply,SBD,M
Boys,74.84,1,Stephen Lehew,Maypearl,69.58,192.78,149.69,195.04,537.51,Single-ply,SBD,M
Boys,74.84,2,Tracy Washington,Mexia,69.67,174.63,115.67,188.24,478.54,Single-ply,SBD,M
Boys,74.84,3,Brazos Sephert,Maypearl,70.67,181.44,90.72,195.04,467.2,Single-ply,SBD,M
Boys,74.84,4,Coy Jorden,Teague,74.3,161.03,115.67,183.7,460.4,Single-ply,SBD,M
Boys,74.84,5,De'Amonte Miles,Dallas Spruce,72.12,151.95,104.33,181.44,437.72,Single-ply,SBD,M
Boys,74.84,6,Jesus Lopez,Buffalo,69.13,165.56,83.91,170.1,419.57,Single-ply,SBD,M
Boys,74.84,7,Jason Burgett,Palmer,73.84,151.95,83.91,176.9,412.77,Single-ply,SBD,M
Boys,74.84,8,Tavion Hall,Kerens,74.66,140.61,86.18,181.44,408.23,Single-ply,SBD,M
Boys,74.84,9,Dalton Wassinger,Blooming Grove,71.4,156.49,95.25,145.15,396.89,Single-ply,SBD,M
Boys,74.84,10,Jayson Jordan,Rice,72.85,147.42,97.52,147.42,392.36,Single-ply,SBD,M
Boys,74.84,11,Hector Zamarippa,Palmer,70.67,136.08,92.99,158.76,387.82,Single-ply,SBD,M
Boys,74.84,12,Jasper Marhall,Corsicana Mildred,74.75,127.01,79.38,158.76,365.14,Single-ply,SBD,M
Boys,74.84,13,Bryan Robb,Oakridge School,73.21,124.74,72.57,158.76,356.07,Single-ply,SBD,M
Boys,74.84,14,Mason Alcaraz,Red Oak Life,72.3,124.74,70.31,149.69,344.73,Single-ply,SBD,M
Boys,74.84,15,Kris Johnson,Dallas Spruce,70.94,129.27,68.04,138.35,335.66,Single-ply,SBD,M
Boys,74.84,16,Jason Smith,Teague,71.03,136.08,61.23,136.08,333.39,Single-ply,SBD,M
Boys,74.84,17,Joe Smith,Maypearl,68.04,108.86,63.5,129.27,301.64,Single-ply,SBD,M
Boys,82.1,18,Cameron Litchfield,Oakwood,74.93,113.4,68.04,115.67,297.1,Single-ply,SBD,M
Boys,74.84,19,Collin Kiethley,Oakridge School,74.84,90.72,68.04,129.27,288.03,Single-ply,SBD,M
Boys,74.84,20,Alex Diaz #3,Oakridge School,72.85,79.38,52.16,127.01,258.55,Single-ply,SBD,M
Boys,74.84,DQ,David Busby,Wortham,69.67,129.27,,,,Single-ply,SBD,M
Boys,74.84,DQ,Cody Medrano,Italy,73.57,,,,,Single-ply,SBD,M
Boys,74.84,DQ,LaMarcus Newsome,Oakwood,71.21,113.4,,,,Single-ply,SBD,M
Boys,82.1,1,Jose Dominguez,Buffalo,77.47,204.12,131.54,199.58,535.24,Single-ply,SBD,M
Boys,82.1,2,Louis Collins,Oakwood,80.2,174.63,122.47,172.37,469.47,Single-ply,SBD,M
Boys,82.1,3,Zach Starkey,Kerens,77.84,163.29,113.4,176.9,453.59,Single-ply,SBD,M
Boys,82.1,4,Chris Atchley,Rice,77.29,165.56,108.86,172.37,446.79,Single-ply,SBD,M
Boys,82.1,5,Juan Lince,Hillsboro,76.29,151.95,97.52,170.1,419.57,Single-ply,SBD,M
Boys,82.1,6,Dylan Woods,Kerens,76.38,140.61,86.18,176.9,403.7,Single-ply,SBD,M
Boys,82.1,7,Patrick Cooper,Dallas Spruce,79.92,145.15,90.72,158.76,394.63,Single-ply,SBD,M
Boys,89.81,8,Brett Bicknell,Oakridge School,82.19,142.88,83.91,154.22,381.02,Single-ply,SBD,M
Boys,82.1,9,Collin Conway,Oakridge School,81.37,136.08,79.38,158.76,374.21,Single-ply,SBD,M
Boys,82.1,10,Aregus Worchester,Wortham,81.19,124.74,77.11,142.88,344.73,Single-ply,SBD,M
Boys,82.1,11,Austin Schaffer,Oakridge School,77.2,106.59,68.04,154.22,328.85,Single-ply,SBD,M
Boys,82.1,12,Mazen Subah,Red Oak Life,80.01,120.2,81.65,127.01,328.85,Single-ply,SBD,M
Boys,89.81,13,Corbitt Toves,Red Oak Life,82.19,127.01,65.77,133.81,326.59,Single-ply,SBD,M
Boys,82.1,14,Josh Sampson,Maypearl,81.65,136.08,65.77,111.13,312.98,Single-ply,SBD,M
Boys,82.1,15,Marcus Roundtree,Blooming Grove,79.65,108.86,58.97,102.06,269.89,Single-ply,SBD,M
Boys,89.81,1,Dj Woods,Kerens,88.36,238.14,136.08,199.58,573.79,Single-ply,SBD,M
Boys,89.81,2,Lucas D'Agostino,Oakridge School,84.91,208.65,124.74,195.04,528.44,Single-ply,SBD,M
Boys,99.79,3,Michael Kline,Kerens,89.9,190.51,95.25,181.44,467.2,Single-ply,SBD,M
Boys,89.81,4,Eduardo Cruz,Hillsboro,86,174.63,102.06,176.9,453.59,Single-ply,SBD,M
Boys,89.81,5,Taner Tunstall,Teague,86.73,158.76,88.45,192.78,439.98,Single-ply,SBD,M
Boys,89.81,6,Robert Robinson,Mexia,87.82,192.78,97.52,142.88,433.18,Single-ply,SBD,M
Boys,89.81,7,Christian Brummett,Oakwood,84.55,158.76,90.72,172.37,421.84,Single-ply,SBD,M
Boys,89.81,8,Colton Davis,Oakridge School,88.99,154.22,86.18,170.1,410.5,Single-ply,SBD,M
Boys,89.81,9,Erick Torres,Palmer,86.27,145.15,97.52,147.42,390.09,Single-ply,SBD,M
Boys,89.81,10,Rogilio Medina,Maypearl,83.64,124.74,68.04,142.88,335.66,Single-ply,SBD,M
Boys,89.81,11,William Pugh,Kerens,83.64,106.59,70.31,145.15,322.05,Single-ply,SBD,M
Boys,89.81,DQ,Jody Bernal,Rice,85.37,188.24,,,,Single-ply,SBD,M
Boys,89.81,DQ,Ben Torres,Rice,86.91,,,,,Single-ply,SBD,M
Boys,99.79,1,Ragan Henderson,Rice,99.43,235.87,149.69,263.08,648.64,Single-ply,SBD,M
Boys,99.79,2,Kelton Henderson,Teague,98.52,265.35,122.47,217.72,605.55,Single-ply,SBD,M
Boys,99.79,3,Josh Ashlock,Maypearl,99.79,226.8,102.06,213.19,542.04,Single-ply,SBD,M
Boys,99.79,4,Averil Royal,Red Oak Life,94.44,210.92,111.13,192.78,514.83,Single-ply,SBD,M
Boys,99.79,5,Ty Tunstall,Teague,96.98,197.31,117.93,197.31,512.56,Single-ply,SBD,M
Boys,99.79,6,David Kennedy,Oakridge School,90.9,188.24,115.67,199.58,503.49,Single-ply,SBD,M
Boys,99.79,7,Justin Smith,Rice,92.53,174.63,99.79,183.7,458.13,Single-ply,SBD,M
Boys,99.79,8,Issachar Librado,Hillsboro,92.26,149.69,104.33,165.56,419.57,Single-ply,SBD,M
Boys,99.79,9,Derrick McElreath,Rio Vista,94.26,136.08,99.79,158.76,394.63,Single-ply,SBD,M
Boys,99.79,10,Zayn Byers,Italy,91.72,142.88,70.31,136.08,349.27,Single-ply,SBD,M
Boys,99.79,DQ,Dustin Kemp,Palmer,99.79,181.44,,,,Single-ply,SBD,M
Boys,99.79,DQ,Daniel Perez,Wortham,92.8,136.08,,,,Single-ply,SBD,M
Boys,109.77,1,Noah Pennell,Corsicana Mildred,106.68,226.8,142.88,195.04,564.72,Single-ply,SBD,M
Boys,109.77,2,Alfredo Librado,Hillsboro,109.5,204.12,136.08,174.63,514.83,Single-ply,SBD,M
Boys,109.77,3,Danny Hanna,Corsicana Mildred,106.78,188.24,129.27,192.78,510.29,Single-ply,SBD,M
Boys,109.77,4,Ben Long,Teague,105.05,197.31,108.86,197.31,503.49,Single-ply,SBD,M
Boys,109.77,5,Tracy Hightower,Red Oak Life,105.96,199.58,113.4,183.7,496.68,Single-ply,SBD,M
Boys,109.77,6,Eric Zavala,Hillsboro,109.77,188.24,97.52,185.97,471.74,Single-ply,SBD,M
Boys,109.77,7,Edgar Mendietta,Hillsboro,106.68,183.7,102.06,165.56,451.32,Single-ply,SBD,M
Boys,109.77,8,Grant Johnson,Oakridge School,106.68,165.56,102.06,181.44,449.06,Single-ply,SBD,M
Boys,109.77,9,Billy Stephens,Rice,103.24,147.42,92.99,145.15,385.55,Single-ply,SBD,M
Boys,109.77,10,Pete Commander,Teague,103.51,154.22,102.06,120.2,376.48,Single-ply,SBD,M
Boys,109.77,11,Marquis McCullen,Mexia,102.97,127.01,61.23,151.95,340.19,Single-ply,SBD,M
Boys,109.77,12,Brandon Brumbelow,Kerens,107.32,117.93,72.57,136.08,326.59,Single-ply,SBD,M
Boys,109.77,13,Collin Newman,Italy,104.87,124.74,72.57,127.01,324.32,Single-ply,SBD,M
Boys,124.74,1,Raul Torres,Palmer,120.56,226.8,127.01,210.92,564.72,Single-ply,SBD,M
Boys,124.74,2,Jose Diaz,Teague,111.86,226.8,115.67,208.65,551.11,Single-ply,SBD,M
Boys,124.74,3,Chris Hobbs,Kerens,115.85,192.78,104.33,185.97,483.08,Single-ply,SBD,M
Boys,124.74,4,Garrett May,Corsicana Mildred,110.68,174.63,106.59,172.37,453.59,Single-ply,SBD,M
Boys,124.74,5,Cameron Lewis,Wortham,118.39,174.63,95.25,158.76,428.64,Single-ply,SBD,M
Boys,124.74,6,Kelton Bales,Italy,115.76,145.15,81.65,158.76,385.55,Single-ply,SBD,M
Boys,124.74,7,Bryce Neilsen,Red Oak Life,113.04,145.15,77.11,161.03,383.29,Single-ply,SBD,M
Boys,124.74,8,Kevin Rolldam,Italy,116.21,151.95,83.91,145.15,381.02,Single-ply,SBD,M
Boys,124.74,9,Juan DeLuna,Hillsboro,112.31,124.74,83.91,147.42,356.07,Single-ply,SBD,M
Boys,124.74+,1,Allen Hodge,Hillsboro,137.44,231.33,181.44,208.65,621.42,Single-ply,SBD,M
Boys,124.74+,2,Edgar Salvador,Hillsboro,136.08,197.31,138.35,183.7,519.36,Single-ply,SBD,M
Boys,124.74+,3,Pedro Salvador,Hillsboro,127.28,174.63,158.76,183.7,517.1,Single-ply,SBD,M
Boys,124.74+,4,Ethan Still,Kerens,185.43,190.51,102.06,185.97,478.54,Single-ply,SBD,M
