Division,WeightClassKg,Place,Name,Team,BodyweightKg,Best3SquatKg,Best3BenchKg,Best3DeadliftKg,TotalKg,Equipment,Event,Sex
Boys,55.79,1,Jeremiah Zelaya,Victoria East,55.61,201.85,97.52,188.24,487.61,Single-ply,SBD,M
Boys,55.79,2,Jeremiah Coleman,Dickinson,55.07,149.69,65.77,165.56,381.02,Single-ply,SBD,M
Boys,55.79,3,Jacob Cavness,Santa Fe,51.89,122.47,83.91,108.86,315.25,Single-ply,SBD,M
Boys,55.79,4,Brandon Liamas,Wharton,55.43,113.4,77.11,124.74,315.25,Single-ply,SBD,M
Boys,55.79,5,Gabriel Vargas,Bay City,55.52,117.93,68.04,117.93,303.91,Single-ply,SBD,M
Boys,55.79,6,Damien Garza,Van Vleck,55.7,122.47,56.7,122.47,301.64,Single-ply,SBD,M
Boys,55.79,DQ,Royshon Godley,Texas City,55.07,142.88,56.7,,,Single-ply,SBD,M
Boys,59.87,1,Matthew Longoria,Alvin,59.06,199.58,147.42,192.78,539.77,Single-ply,SBD,M
Boys,59.87,2,Jacob Barrera,Alvin,59.42,161.03,92.99,172.37,426.38,Single-ply,SBD,M
Boys,59.87,3,Bailey Lepore,Texas City,59.6,154.22,102.06,154.22,410.5,Single-ply,SBD,M
Boys,59.87,4,Armando Cabriales,Clute Brazoswood,58.06,147.42,90.72,165.56,403.7,Single-ply,SBD,M
Boys,59.87,5,Jordon Trevino,Bay City,55.88,151.95,72.57,165.56,390.09,Single-ply,SBD,M
Boys,59.87,6,Mike Casteneda,Texas City,56.15,129.27,83.91,142.88,356.07,Single-ply,SBD,M
Boys,59.87,7,Gaven Cameron,Danbury,58.51,95.25,65.77,113.4,274.42,Single-ply,SBD,M
Boys,67.13,1,Jonathan Zelaya,Victoria East,66.5,278.96,145.15,240.4,664.51,Single-ply,SBD,M
Boys,67.13,2,Phong Nguyen,Clute Brazoswood,63.59,174.63,86.18,170.1,430.91,Single-ply,SBD,M
Boys,67.13,3,Abraham Espino,Van Vleck,66.86,133.81,92.99,154.22,381.02,Single-ply,SBD,M
Boys,67.13,4,Francisco Cantu,Freeport Brazosport,63.23,127.01,81.65,154.22,362.87,Single-ply,SBD,M
Boys,67.13,5,Jared Pearson,Clute Brazoswood,63.78,127.01,77.11,151.95,356.07,Single-ply,SBD,M
Boys,67.13,6,Nataniel Neely,Clute Brazoswood,66.04,117.93,81.65,136.08,335.66,Single-ply,SBD,M
Boys,67.13,7,James Sullivan,Clute Brazoswood,66.04,102.06,83.91,136.08,322.05,Single-ply,SBD,M
Boys,67.13,8,Luis Cantu,Clute Brazoswood,62.23,,,122.47,122.47,Single-ply,D,M
Boys,74.84,1,Tre Evans,Edna,71.94,197.31,124.74,215.46,537.51,Single-ply,SBD,M
Boys,74.84,2,Marc Banda,Alvin,72.12,201.85,106.59,201.85,510.29,Single-ply,SBD,M
Boys,74.84,3,Jonathan Pesina,Bay City,74.57,204.12,124.74,181.44,510.29,Single-ply,SBD,M
Boys,74.84,4,Luis Sanchez,Dickinson,73.12,204.12,111.13,192.78,508.02,Single-ply,SBD,M
Boys,74.84,5,Derrick Cobbs,Dickinson,70.94,183.7,90.72,215.46,489.88,Single-ply,SBD,M
Boys,74.84,6,Nick Sauer,Texas City,69.22,183.7,106.59,197.31,487.61,Single-ply,SBD,M
Boys,74.84,7,Efren Ramirez,Alvin,68.67,179.17,122.47,181.44,483.08,Single-ply,SBD,M
Boys,74.84,8,Daniel Taylor,Alvin,72.21,174.63,117.93,176.9,469.47,Single-ply,SBD,M
Boys,74.84,9,Carlos Torres,Texas City,73.03,165.56,120.2,174.63,460.4,Single-ply,SBD,M
Boys,74.84,10,William Palmer,Dickinson,73.03,183.7,95.25,172.37,451.32,Single-ply,SBD,M
Boys,74.84,11,Isiah Hall,Danbury,72.85,156.49,88.45,172.37,417.3,Single-ply,SBD,M
Boys,74.84,12,Armondo Marillo,Bay City,72.94,163.29,83.91,167.83,415.04,Single-ply,SBD,M
Boys,74.84,13,Lane Labauve,Danbury,68.31,165.56,90.72,154.22,410.5,Single-ply,SBD,M
Boys,74.84,14,Seruando Peralta,Bay City,67.22,149.69,90.72,158.76,399.16,Single-ply,SBD,M
Boys,74.84,15,Gunnar Davidek,Wharton,67.95,142.88,81.65,158.76,383.29,Single-ply,SBD,M
Boys,74.84,16,Connor Stevens,Van Vleck,70.76,142.88,79.38,142.88,365.14,Single-ply,SBD,M
Boys,74.84,17,Adolfo Torres,Louise,69.31,113.4,65.77,158.76,337.93,Single-ply,SBD,M
Boys,74.84,DQ,Chris West,Clute Brazoswood,68.58,106.59,,,,Single-ply,SBD,M
Boys,74.84,DQ,Joseph Ball,Wharton,72.21,142.88,,,,Single-ply,SBD,M
Boys,82.1,1,Beau Ramos,Texas City,81.56,249.48,131.54,199.58,580.6,Single-ply,SBD,M
Boys,82.1,2,David Aviles,Alvin,76.84,195.04,117.93,183.7,496.68,Single-ply,SBD,M
Boys,82.1,3,Caleb Graddick,Freeport Brazosport,76.29,176.9,104.33,201.85,483.08,Single-ply,SBD,M
Boys,82.1,4,Maliki Bethea,Pasadena Memorial,80.2,142.88,90.72,172.37,405.97,Single-ply,SBD,M
Boys,82.1,5,Tj Rotramel,Clute Brazoswood,80.83,142.88,65.77,127.01,335.66,Single-ply,SBD,M
Boys,82.1,6,Aaron Gomez,Louise,76.38,113.4,52.16,113.4,278.96,Single-ply,SBD,M
Boys,82.1,DQ,Mason Avery,Texas City,78.74,,,,,Single-ply,SBD,M
Boys,82.1,DQ,Jonathan Oviedo,Victoria East,81.37,,,,,Single-ply,SBD,M
Boys,89.81,1,Octavio Galicia,Dickinson,87.54,204.12,124.74,213.19,542.04,Single-ply,SBD,M
Boys,89.81,2,Raphael Chacon,Victoria East,84.37,199.58,120.2,206.38,526.17,Single-ply,SBD,M
Boys,89.81,3,Gage Slaughter,Santa Fe,88.9,204.12,124.74,197.31,526.17,Single-ply,SBD,M
Boys,89.81,4,Jonathan Rios,Texas City,88.36,185.97,115.67,199.58,501.22,Single-ply,SBD,M
Boys,89.81,5,Tristan Wells,Van Vleck,88,156.49,108.86,181.44,446.79,Single-ply,SBD,M
Boys,89.81,6,Joey Gibbs,Santa Fe,87,163.29,83.91,165.56,412.77,Single-ply,SBD,M
Boys,89.81,7,Justin Fanning,Edna,82.83,124.74,86.18,131.54,342.46,Single-ply,SBD,M
Boys,89.81,8,Trevor Wells,Van Vleck,85.55,124.74,79.38,79.38,283.5,Single-ply,SBD,M
Boys,89.81,DQ,Antonio Botello,Santa Fe,87.63,167.83,108.86,,,Single-ply,SBD,M
Boys,89.81,DQ,Marcus Dobson,Santa Fe,89.81,,,,,Single-ply,SBD,M
Boys,89.81,DQ,Kaleb Jacobs,Texas City,85.18,163.29,,,,Single-ply,SBD,M
Boys,89.81,DQ,Joseph McCarty-Davis,Texas City,84.37,,,,,Single-ply,SBD,M
Boys,99.79,2,Daniel Parr,Dickinson,98.52,263.08,161.03,249.48,673.58,Single-ply,SBD,M
Boys,99.79,3,Jose Rodriguez,Dickinson,96.52,260.82,170.1,238.14,669.05,Single-ply,SBD,M
Boys,99.79,4,Dalton Ashcraft,Van Vleck,97.61,242.67,147.42,235.87,625.96,Single-ply,SBD,M
Boys,99.79,5,Cade Albrecht,Santa Fe,93.98,151.95,79.38,156.49,387.82,Single-ply,SBD,M
Boys,99.79,6,Michael Martinez,Freeport Brazosport,89.99,136.08,81.65,147.42,365.14,Single-ply,SBD,M
Boys,99.79,7,Josh Figueroa,Van Vleck,97.25,131.54,70.31,131.54,333.39,Single-ply,SBD,M
Boys,99.79,DQ,Kaleb Wisko,Santa Fe,94.98,165.56,111.13,,,Single-ply,SBD,M
Boys,99.79,DQ,Cobe Lane,Texas City,91.17,,,,,Single-ply,SBD,M
Boys,109.77,1,Christian Oviedo,Victoria East,99.88,301.64,201.85,254.01,757.5,Single-ply,SBD,M
Boys,109.77,2,Arron Vasquez,Victoria East,106.96,249.48,145.15,199.58,594.21,Single-ply,SBD,M
Boys,109.77,3,Michael McVay,Santa Fe,103.06,226.8,142.88,197.31,566.99,Single-ply,SBD,M
Boys,109.77,4,John Rinehart,Texas City,104.87,229.06,142.88,190.51,562.45,Single-ply,SBD,M
Boys,109.77,5,Christian Gomez,Victoria East,108.86,215.46,95.25,231.33,542.04,Single-ply,SBD,M
Boys,109.77,6,Michael Galvez,Bay City,101.79,192.78,111.13,170.1,474,Single-ply,SBD,M
Boys,109.77,7,Eric Schuster,Clute Brazoswood,100.79,181.44,90.72,188.24,460.4,Single-ply,SBD,M
Boys,109.77,8,Ruben Alameda,Bay City,105.78,165.56,102.06,163.29,430.91,Single-ply,SBD,M
Boys,109.77,9,Adam McDonald,Van Vleck,102.33,158.76,77.11,142.88,378.75,Single-ply,SBD,M
Boys,109.77,DQ,Lane Elizondo,Van Vleck,103.87,174.63,,,,Single-ply,SBD,M
Boys,109.77,DQ,Christian McArther,Santa Fe,108.77,,,,,Single-ply,SBD,M
Boys,109.77,DQ,Ivan Dewitt,Bay City,109.59,192.78,102.06,,,Single-ply,SBD,M
Boys,109.77,DQ,Charles Tabares,Van Vleck,107.5,222.26,,,,Single-ply,SBD,M
Boys,109.77,DQ,Celestino Alvarez,Victoria East,100.43,281.23,,,,Single-ply,SBD,M
Boys,124.74,1,Thomas Ratka,Alvin,124.38,281.23,183.7,260.82,725.75,Single-ply,SBD,M
Boys,124.74,1,Tyler Ray,Santa Fe,109.95,274.42,174.63,240.4,689.46,Single-ply,SBD,M
Boys,124.74,2,Brandon Rangel,Dickinson,124.19,274.42,145.15,238.14,657.71,Single-ply,SBD,M
Boys,124.74,3,Pedro Garcia,Alvin,122.92,247.21,161.03,242.67,650.91,Single-ply,SBD,M
Boys,124.74,4,Aaron Mata,Alvin,120.47,256.28,149.69,222.26,628.23,Single-ply,SBD,M
Boys,124.74,5,Nick Touch,Alvin,110.77,249.48,142.88,204.12,596.47,Single-ply,SBD,M
Boys,124.74,6,Marcus Fowler,Bay City,112.67,238.14,120.2,238.14,596.47,Single-ply,SBD,M
Boys,124.74,7,Armando Alaniz,Dickinson,122.29,249.48,154.22,192.78,596.47,Single-ply,SBD,M
Boys,124.74,8,Fathi Mustafa,Pasadena Memorial,118.3,208.65,127.01,199.58,535.24,Single-ply,SBD,M
Boys,124.74,9,Jack Carmona,Victoria East,117.75,204.12,102.06,197.31,503.49,Single-ply,SBD,M
Boys,124.74,10,Luis Delgado,Texas City,118.21,197.31,117.93,172.37,487.61,Single-ply,SBD,M
Boys,124.74,11,Christian Shores,Danbury,117.48,172.37,115.67,167.83,455.86,Single-ply,SBD,M
Boys,124.74,12,Cruz Soria,Freeport Brazosport,115.67,185.97,124.74,117.93,428.64,Single-ply,SBD,M
Boys,124.74,DQ,Trenton Mikes,Santa Fe,124.1,204.12,102.06,181.44,,Single-ply,SBD,M
Boys,124.74,DQ,Nikolas Fuentes,Texas City,115.39,,,,,Single-ply,SBD,M
Boys,124.74,DQ,Jorge Vazquez,Victoria East,115.3,263.08,,,,Single-ply,SBD,M
Boys,124.74+,1,Jesse Facundo,Pasadena Memorial,126.46,303.91,165.56,263.08,732.55,Single-ply,SBD,M
Boys,124.74+,2,Marcus White,Dickinson,138.89,285.76,145.15,226.8,657.71,Single-ply,SBD,M
Boys,124.74+,3,Noah Barajas,Alvin,136.17,258.55,145.15,219.99,623.69,Single-ply,SBD,M
Boys,124.74+,4,Clint Themis,Wharton,143.15,231.33,147.42,238.14,616.89,Single-ply,SBD,M
Boys,124.74+,5,Torrey Lastice,Dickinson,144.97,249.48,158.76,183.7,591.94,Single-ply,SBD,M
Boys,124.74+,6,Markale White,Dickinson,137.17,242.67,117.93,215.46,576.06,Single-ply,SBD,M
Boys,124.74+,7,Christian Guevara,Freeport Brazosport,129.46,181.44,99.79,154.22,435.45,Single-ply,SBD,M
Boys,124.74+,8,Jordan Pesina,Bay City,127.55,167.83,83.91,138.35,390.09,Single-ply,SBD,M
Boys,,NS,Joshua Whaling,Danbury,,,,,,Single-ply,SBD,M
Boys,,NS,Thomas Johnson,Danbury,,,,,,Single-ply,SBD,M
Boys,,NS,Zane Havel,Bay City,,,,,,Single-ply,SBD,M
Boys,,NS,Jaun Mendoza,Freeport Brazosport,,,,,,Single-ply,SBD,M
Boys,,NS,Luis Rodriquez,Freeport Brazosport,,,,,,Single-ply,SBD,M
Boys,,NS,Nathan Cabrera,Pasadena Memorial,,,,,,Single-ply,SBD,M
Boys,,NS,Micheal Pena,Pasadena Memorial,,,,,,Single-ply,SBD,M
Boys,,NS,Cj Calhoun,Freeport Brazosport,,,,,,Single-ply,SBD,M
Boys,,NS,Derek Luna,Louise,,,,,,Single-ply,SBD,M
Boys,,NS,Leo Torres,Louise,,,,,,Single-ply,SBD,M
Boys,,NS,Ashton Wardrup,Santa Fe,,,,,,Single-ply,SBD,M
Boys,,NS,Zyion Clay,Wharton,,,,,,Single-ply,SBD,M
Boys,,NS,Donavan Krushall,Wharton,,,,,,Single-ply,SBD,M
Boys,,NS,Brandon Espinoza,Van Vleck,,,,,,Single-ply,SBD,M
Boys,,NS,Albert Alfaro,Texas City,,,,,,Single-ply,SBD,M
Boys,,NS,Tomas Ibarra,Texas City,,,,,,Single-ply,SBD,M
Boys,,NS,Luis Mugartegui,Texas City,,,,,,Single-ply,SBD,M
Boys,,NS,Damien Butler,Texas City,,,,,,Single-ply,SBD,M
Boys,,NS,Santiago Hernandez,Texas City,,,,,,Single-ply,SBD,M
