Division,WeightClassKg,Place,Name,Team,BodyweightKg,Best3SquatKg,Best3BenchKg,Best3DeadliftKg,TotalKg,Equipment,Event,Sex
Boys,51.71,1,Hector Gonzalez,Baytown Goose Creek Memorial,47.54,86.18,58.97,97.52,242.67,Single-ply,SBD,M
Boys,51.71,2,Kole Joiner,La Marque,48.35,77.11,45.36,108.86,231.33,Single-ply,SBD,M
Boys,55.79,1,Jessy Yanez,Channelview,55.79,167.83,92.99,195.04,455.86,Single-ply,SBD,M
Boys,55.79,2,Ty Pafford,Dayton,55.7,147.42,72.57,147.42,367.41,Single-ply,SBD,M
Boys,55.79,3,Michael Castaneda,Texas City,54.52,129.27,74.84,142.88,347,Single-ply,SBD,M
Boys,55.79,4,Oscar Puente,New Caney,54.98,120.2,70.31,147.42,337.93,Single-ply,SBD,M
Boys,55.79,5,Royshon Godley,Texas City,52.62,127.01,68.04,138.35,333.39,Single-ply,SBD,M
Boys,55.79,6,Damien Garza,Van Vleck,54.61,129.27,56.7,136.08,322.05,Single-ply,SBD,M
Boys,55.79,7,Clay Wittneben,Needville,53.89,106.59,61.23,136.08,303.91,Single-ply,SBD,M
Boys,59.87,1,Bailey Lepore,Texas City,58.51,154.22,99.79,142.88,396.89,Single-ply,SBD,M
Boys,59.87,2,Zach Mills,Conroe Woodlands College Park,58.97,154.22,72.57,161.03,387.82,Single-ply,SBD,M
Boys,59.87,3,Gabriel Vargas,Bay City,56.61,127.01,63.5,136.08,326.59,Single-ply,SBD,M
Boys,59.87,4,Caesar Palacios,Winnie East Chambers,58.15,111.13,65.77,122.47,299.37,Single-ply,SBD,M
Boys,59.87,5,Rob Saunders,Sour Lake Hardin-Jefferson,57.52,97.52,65.77,124.74,288.03,Single-ply,SBD,M
Boys,59.87,DQ,Jacob Rodriguez,Needville,58.6,,,,,Single-ply,SBD,M
Boys,59.87,DQ,Zane Havel,Bay City,59.87,195.04,90.72,,,Single-ply,SBD,M
Boys,67.13,1,Dj Stewart,Crosby,66.95,199.58,120.2,192.78,512.56,Single-ply,SBD,M
Boys,67.13,2,Keven Nguyen,Friendswood Clear Brook,64.68,183.7,115.67,192.78,492.15,Single-ply,SBD,M
Boys,67.13,3,Orlando Moreno,Bay City,65.86,201.85,106.59,183.7,492.15,Single-ply,SBD,M
Boys,67.13,4,Jacob Vacek,Needville,67.04,197.31,108.86,174.63,480.81,Single-ply,SBD,M
Boys,67.13,5,Russell Pickney,La Marque,66.04,163.29,99.79,213.19,476.27,Single-ply,SBD,M
Boys,67.13,6,Christian Ramirez,Dayton,66.59,174.63,104.33,197.31,476.27,Single-ply,SBD,M
Boys,67.13,7,Santiago Hernandez,Texas City,65.23,183.7,108.86,158.76,451.32,Single-ply,SBD,M
Boys,67.13,8,Nolton Shelvin,Winnie East Chambers,63.05,156.49,88.45,192.78,437.72,Single-ply,SBD,M
Boys,67.13,9,Tony Solano,Warren,65.59,165.56,74.84,174.63,415.04,Single-ply,SBD,M
Boys,67.13,10,Brennan Pott,Cleveland Tarkington,64.41,151.95,79.38,158.76,390.09,Single-ply,SBD,M
Boys,67.13,11,Sameer Haswani,Baytown Goose Creek Memorial,67.13,127.01,90.72,149.69,367.41,Single-ply,SBD,M
Boys,67.13,DQ,Jayden Landry,Anahuac,65.59,,,,,Single-ply,SBD,M
Boys,67.13,DQ,Davien Acevedo,Dayton,67.13,154.22,99.79,,,Single-ply,SBD,M
Boys,74.84,1,Tre Evans,Edna,72.03,195.04,127.01,215.46,537.51,Single-ply,SBD,M
Boys,74.84,2,Vincent Ha,Friendswood Clear Brook,69.76,204.12,127.01,204.12,535.24,Single-ply,SBD,M
Boys,74.84,3,Malik Griffin,Crosby,72.76,192.78,106.59,199.58,498.95,Single-ply,SBD,M
Boys,74.84,4,Derrick Cobbs,Dickinson,71.21,190.51,90.72,215.46,496.68,Single-ply,SBD,M
Boys,74.84,5,Nicholas Sauer,Texas City,69.49,190.51,104.33,190.51,485.34,Single-ply,SBD,M
Boys,74.84,6,William Palmer,Dickinson,72.85,192.78,90.72,172.37,455.86,Single-ply,SBD,M
Boys,74.84,7,Raj Mangat,La Porte,74.84,156.49,115.67,181.44,453.59,Single-ply,SBD,M
Boys,74.84,DQ,Carlos Torres,Texas City,73.39,,,,,Single-ply,SBD,M
Boys,82.1,1,Dawson Nobriga,Channelview,79.65,249.48,161.03,226.8,637.3,Single-ply,SBD,M
Boys,82.1,2,Mason Avery,Texas City,79.02,238.14,113.4,217.72,569.26,Single-ply,SBD,M
Boys,82.1,3,Jonathan Pesina,Bay City,75.84,213.19,127.01,199.58,539.77,Single-ply,SBD,M
Boys,82.1,4,Trevor Howard,Cleveland Tarkington,75.75,192.78,102.06,215.46,510.29,Single-ply,SBD,M
Boys,82.1,5,Ben Schepf,Winnie East Chambers,79.11,204.12,102.06,204.12,510.29,Single-ply,SBD,M
Boys,82.1,6,David Aviles,Alvin,75.84,195.04,113.4,197.31,505.76,Single-ply,SBD,M
Boys,82.1,7,Johnathon Sims,Crosby,80.2,199.58,90.72,206.38,496.68,Single-ply,SBD,M
Boys,82.1,8,Devon Hadnot,Warren,82.1,170.1,102.06,188.24,460.4,Single-ply,SBD,M
Boys,82.1,9,Charlie Hayman,Sour Lake Hardin-Jefferson,76.2,172.37,95.25,190.51,458.13,Single-ply,SBD,M
Boys,82.1,10,Chris Moulton,Anahuac,79.83,163.29,111.13,179.17,453.59,Single-ply,SBD,M
Boys,82.1,11,Trystain Conner,Sour Lake Hardin-Jefferson,78.47,174.63,97.52,179.17,451.32,Single-ply,SBD,M
Boys,82.1,12,Jacob Galle,Sour Lake Hardin-Jefferson,75.93,149.69,97.52,183.7,430.91,Single-ply,SBD,M
Boys,82.1,13,Jonathan Ruiz,Bay City,80.83,183.7,90.72,154.22,428.64,Single-ply,SBD,M
Boys,82.1,DQ,Chance Soignet,Warren,79.02,149.69,99.79,,,Single-ply,SBD,M
Boys,82.1,DQ,Sam Jones,New Caney,78.65,195.04,,,,Single-ply,SBD,M
Boys,82.1,DQ,Ty'Rique Smith-Gants,Anahuac,81.65,238.14,,,,Single-ply,SBD,M
Boys,82.1,DQ,Bradley Sanders,Cleveland Tarkington,75.57,183.7,97.52,,,Single-ply,SBD,M
Boys,89.81,1,Christian Hood,Fort Bend Hightower,88.63,249.48,165.56,249.48,664.51,Single-ply,SBD,M
Boys,89.81,2,Andy Huynh,Friendswood Clear Brook,87.63,215.46,136.08,217.72,569.26,Single-ply,SBD,M
Boys,89.81,3,Octavio Galicia,Dickinson,88.09,215.46,129.27,224.53,569.26,Single-ply,SBD,M
Boys,89.81,4,Benjamin McElyea,Pearland Dawson,89.36,201.85,149.69,208.65,560.19,Single-ply,SBD,M
Boys,89.81,5,Logan Hill,Anahuac,83.01,190.51,113.4,244.94,548.85,Single-ply,SBD,M
Boys,89.81,6,Gage Slaughter,Santa Fe,88.45,204.12,127.01,213.19,544.31,Single-ply,SBD,M
Boys,89.81,7,Kole Matula,Needville,85.37,195.04,122.47,195.04,512.56,Single-ply,SBD,M
Boys,89.81,8,Jonathan Rios,Texas City,88.63,183.7,120.2,199.58,503.49,Single-ply,SBD,M
Boys,89.81,9,Isiah Hart,Winnie East Chambers,84.91,183.7,106.59,192.78,483.08,Single-ply,SBD,M
Boys,89.81,10,Preston Vermillion,Baytown Goose Creek Memorial,87.91,183.7,102.06,183.7,469.47,Single-ply,SBD,M
Boys,89.81,11,Tim Camp,Crosby,89.36,165.56,108.86,192.78,467.2,Single-ply,SBD,M
Boys,89.81,12,Vicente Olmos,Baytown Goose Creek Memorial,85.37,165.56,115.67,183.7,464.93,Single-ply,SBD,M
Boys,89.81,13,Tristan Wells,Van Vleck,89.81,165.56,106.59,185.97,458.13,Single-ply,SBD,M
Boys,89.81,14,Ty Louvierre,Sour Lake Hardin-Jefferson,84.01,179.17,92.99,161.03,433.18,Single-ply,SBD,M
Boys,89.81,15,Jordan Rosborough,Fort Bend Hightower,84.28,165.56,102.06,149.69,417.3,Single-ply,SBD,M
Boys,99.79,1,Brandon Diaz,Crosby,96.07,265.35,154.22,244.94,664.51,Single-ply,SBD,M
Boys,99.79,2,Leondre Smith,Crosby,93.98,238.14,122.47,213.19,573.79,Single-ply,SBD,M
Boys,99.79,3,Anthony Fatal,Baytown Goose Creek Memorial,98.88,206.38,115.67,197.31,519.36,Single-ply,SBD,M
Boys,99.79,4,Brandon Haltom,Cleveland Tarkington,96.34,201.85,113.4,199.58,514.83,Single-ply,SBD,M
Boys,99.79,5,Zecheriah Gomez,Baytown Goose Creek Memorial,95.89,190.51,102.06,195.04,487.61,Single-ply,SBD,M
Boys,99.79,6,Traitan Crump,Baytown Goose Creek Memorial,93.62,165.56,108.86,190.51,464.93,Single-ply,SBD,M
Boys,99.79,7,Kolin McCullough,Sour Lake Hardin-Jefferson,99.25,167.83,115.67,181.44,464.93,Single-ply,SBD,M
Boys,99.79,8,Nathan Greak,Cleveland Tarkington,94.08,192.78,102.06,158.76,453.59,Single-ply,SBD,M
Boys,99.79,DQ,Lorenzo Salinas,Baytown Goose Creek Memorial,97.34,,,,,Single-ply,SBD,M
Boys,99.79,DQ,Caleb Richardson,New Caney,98.34,,,,,Single-ply,SBD,M
Boys,99.79,DQ,Tyler Wolfe,La Porte,99.06,238.14,133.81,,,Single-ply,SBD,M
Boys,109.77,1,Michael Bush,Channelview,104.87,235.87,147.42,256.28,639.57,Single-ply,SBD,M
Boys,109.77,2,Nick Touch,Alvin,108.95,256.28,142.88,215.46,614.62,Single-ply,SBD,M
Boys,109.77,3,Michael McVay,Santa Fe,103.15,242.67,142.88,222.26,607.81,Single-ply,SBD,M
Boys,109.77,4,Isaiah Chance,Pearland Dawson,106.96,233.6,131.54,231.33,596.47,Single-ply,SBD,M
Boys,109.77,5,Caleb Hayden,Sour Lake Hardin-Jefferson,105.14,215.46,124.74,229.06,569.26,Single-ply,SBD,M
Boys,109.77,6,Alec Genera,New Caney,107.32,226.8,154.22,183.7,564.72,Single-ply,SBD,M
Boys,109.77,7,Ricardo Marquez,Needville,107.23,199.58,117.93,204.12,521.63,Single-ply,SBD,M
Boys,109.77,8,Chris Hein,Needville,107.59,195.04,115.67,206.38,517.1,Single-ply,SBD,M
Boys,109.77,9,Dalton Williams,Baytown Goose Creek Memorial,109.77,204.12,104.33,197.31,505.76,Single-ply,SBD,M
Boys,109.77,10,Lane Elizondo,Van Vleck,102.15,179.17,117.93,201.85,498.95,Single-ply,SBD,M
Boys,109.77,11,Michael Galvez,Bay City,100.06,197.31,113.4,174.63,485.34,Single-ply,SBD,M
Boys,109.77,12,Jerimiah Juarez,Warren,105.23,192.78,102.06,183.7,478.54,Single-ply,SBD,M
Boys,109.77,13,Nathaniel Prevost,Friendswood Clear Brook,103.78,161.03,102.06,204.12,467.2,Single-ply,SBD,M
Boys,109.77,14,Jesus Bolanos,Baytown Goose Creek Memorial,106.68,183.7,95.25,183.7,462.66,Single-ply,SBD,M
Boys,109.77,15,Austin Couhig,Cleveland Tarkington,107.68,183.7,88.45,185.97,458.13,Single-ply,SBD,M
Boys,109.77,16,Ivan Dewitt,Bay City,107.41,181.44,104.33,170.1,455.86,Single-ply,SBD,M
Boys,109.77,17,Tyler Thomas,Crosby,102.87,170.1,102.06,174.63,446.79,Single-ply,SBD,M
Boys,109.77,DQ,Blaine Berry,Crosby,102.24,176.9,117.93,,,Single-ply,SBD,M
Boys,109.77,DQ,Nathan Banuelos,Baytown Lee,108.23,201.85,102.06,,,Single-ply,SBD,M
Boys,109.77,DQ,John Rinehart,Texas City,106.14,,,,,Single-ply,SBD,M
Boys,109.77,DQ,Dylan Lucier,Warren,107.77,,,,,Single-ply,SBD,M
Boys,124.74,1,Brandon Rangel,Dickinson,123.2,283.5,145.15,244.94,673.58,Single-ply,SBD,M
Boys,124.74,2,Kyler Loftin,Warren,112.76,263.08,142.88,231.33,637.3,Single-ply,SBD,M
Boys,124.74,3,Aaron Mata,Alvin,121.2,260.82,140.61,235.87,637.3,Single-ply,SBD,M
Boys,124.74,4,Armando Alaniz,Dickinson,121.2,260.82,156.49,192.78,610.08,Single-ply,SBD,M
Boys,124.74,5,Payne He'Bert,Pearland Dawson,123.83,226.8,142.88,231.33,601.01,Single-ply,SBD,M
Boys,124.74,6,Jacob Jones,Cleveland Tarkington,116.94,215.46,138.35,199.58,553.38,Single-ply,SBD,M
Boys,124.74,7,Enrique Montes,Sour Lake Hardin-Jefferson,124.01,222.26,108.86,192.78,523.9,Single-ply,SBD,M
Boys,124.74,DQ,Richard Lewis,Friendswood Clear Brook,121.11,,,,,Single-ply,SBD,M
Boys,124.74,DQ,Matt Mercado,Cleveland Tarkington,120.56,190.51,90.72,,,Single-ply,SBD,M
Boys,124.74+,1,Marcus White,Dickinson,136.98,294.84,147.42,226.8,669.05,Single-ply,SBD,M
Boys,124.74+,2,Bernard Childs,Channelview,150.68,249.48,156.49,263.08,669.05,Single-ply,SBD,M
Boys,124.74+,3,Brycen Boudreaux,La Porte,155.22,265.35,154.22,219.99,639.57,Single-ply,SBD,M
Boys,124.74+,4,Torrey Lastice,Dickinson,145.78,260.82,158.76,204.12,623.69,Single-ply,SBD,M
Boys,124.74+,5,Alex Smith,Anahuac,145.24,238.14,154.22,217.72,610.08,Single-ply,SBD,M
Boys,124.74+,6,Markale White,Dickinson,136.35,242.67,129.27,235.87,607.81,Single-ply,SBD,M
Boys,124.74+,7,Josh Bankhead,Conroe Woodlands College Park,149.23,240.4,165.56,199.58,605.55,Single-ply,SBD,M
Boys,124.74+,8,Dwight Daniel,Friendswood Clear Brook,125.01,226.8,124.74,224.53,576.06,Single-ply,SBD,M
Boys,124.74+,9,Phoenix Shackleford,Baytown Lee,137.89,226.8,136.08,204.12,566.99,Single-ply,SBD,M
Boys,124.74+,10,Ulises Ibarra,Baytown Goose Creek Memorial,130.73,215.46,86.18,188.24,489.88,Single-ply,SBD,M
Boys,124.74+,11,Jayden Evans,Needville,141.97,199.58,122.47,165.56,487.61,Single-ply,SBD,M
Boys,124.74+,12,Billy Haynes,Baytown Lee,126.01,183.7,104.33,174.63,462.66,Single-ply,SBD,M
Boys,124.74+,13,Keaton Sanders,Baytown Goose Creek Memorial,133.81,136.08,72.57,104.33,312.98,Single-ply,SBD,M
Boys,124.74+,DQ,Byron Henderson,Channelview,130.73,238.14,154.22,,,Single-ply,SBD,M
Boys,124.74+,DQ,Peyton McCormick,Cleveland Tarkington,126.19,,,,,Single-ply,SBD,M
Boys,124.74+,DQ,Micah Hare,Cleveland Tarkington,134.35,,,,,Single-ply,SBD,M
Boys,124.74+,DQ,Dillan Ahre,Cleveland Tarkington,169.1,233.6,122.47,,,Single-ply,SBD,M
Boys,124.74+,DQ,Chayse Todd,Crosby,126.28,,,,,Single-ply,SBD,M
Boys,124.74+,DQ,Dawson Langham,La Porte,134.35,,,,,Single-ply,SBD,M
