WeightClassKg,Name,Sex,BirthYear,BodyweightKg,Country,Division,Squat1Kg,Squat2Kg,Squat3Kg,Squat4Kg,Best3SquatKg,Bench1Kg,Bench2Kg,Bench3Kg,Bench4Kg,Best3BenchKg,Deadlift1Kg,Deadlift2Kg,Deadlift3Kg,Deadlift4Kg,Best3DeadliftKg,TotalKg,Place,Equipment,Event
44,Irina Pomerantsev,F,1970,41.7,Israel,M2,80,85,90,,90,60,62.5,,,62.5,95,100,-102.5,,100,252.5,1,Wraps,SBD
48,Katerina Myalkovska,F,1972,46.3,Ukraine,M1,-65,65,-75,,65,42.5,47.5,-50,,47.5,80,90,102.5,,102.5,215,1,Wraps,SBD
48,Nevenka Crnogorčević,F,1969,47.2,Serbia,M2,55,-66,-66,,55,35,38.5,-40,-40,38.5,92.5,100,,,100,193.5,1,Wraps,SBD
48,Borka Blagojević,F,2001,47.3,Serbia,T1,55,-60,65,,65,27.5,-30,30,-33.5,30,85,90,95,-100,95,190,1,Wraps,SBD
48,Tereza Rybová,F,1995,48,Czechia,J,85,95,100,-100.5,100,40,47.5,-50,,47.5,105,115,117.5,,117.5,265,1,Wraps,SBD
52,Kitti Suli,F,1995,49.9,Hungary,J,75,-85,-85,,75,45,-50,-50,,45,75,85,-90,,85,205,1,Wraps,SBD
52,Ana Knežević,F,1997,51.1,Serbia,T3,60,-71,72.5,,72.5,35,-37.5,-37.5,,35,-101.5,101.5,105,110,105,212.5,1,Wraps,SBD
52,Zorana Dinić,F,1998,52,Serbia,T3,70,80,-90,,80,35,37.5,39,,39,85,92.5,-95,,92.5,211.5,2,Wraps,SBD
56,Tea Stojšić,F,1997,53.1,Croatia,T3,80,-85,-85,-85,80,45,-50,50,,50,110,-117.5,-117.5,-117.5,110,240,1,Wraps,SBD
56,Daniela Silva,F,1969,53.3,Argentina,M2,80,90,-100,,90,45,50,-55,,50,100,110,120,,120,260,1,Wraps,SBD
56,Emilija Jovanović,F,1992,53.7,Serbia,O,-100,100,-110,,100,50,52.5,-55,,52.5,110,120,,,120,272.5,1,Wraps,SBD
56,Tereza Mlýnková,F,1993,53.8,Czechia,J,75,85,92.5,,92.5,52.5,58,-62.5,,58,110,130,132.5,,132.5,283,2,Wraps,SBD
56,Dragana Gojković,F,1970,54.1,Serbia,M2,50,-55,57.5,,57.5,35,37.5,40,,40,75,80,82.5,,82.5,180,2,Wraps,SBD
56,Slávka Ratvajská,F,1973,55,Slovakia,M1,105,115,120,,120,55,60,62.5,,62.5,115,125,-137.5,,125,307.5,1,Wraps,SBD
56,Violeta Kolunova,F,1993,55.9,Latvia,J,90,105,-121,,105,57.5,62.5,65,-67.5,65,110,120,125,,125,295,1,Wraps,SBD
60,Mellissa Hurley,F,1977,56.6,UK,O,90,102.5,-110,,102.5,55,57.5,60,,60,-120,127.5,135,,135,297.5,2,Wraps,SBD
60,Regina Bohus,F,1999,56.7,Hungary,T2,100,110,-115,,110,50,60,-67.5,,60,100,111,120,,120,290,1,Wraps,SBD
60,Danijela Jakovljević,F,1990,57,Serbia,O,70,-80,-87.5,,70,35,-40,40,,40,75,85,90,,90,200,3,Wraps,SBD
60,Julie Davis,F,1976,58.1,UK,M1,105,112.5,120,,120,65,-70,70,,70,125,135,-140,,135,325,1,Wraps,SBD
60,Rehana Maniar,F,1974,59.2,Ireland,M1,100,-107.5,-107.5,,100,50,57.5,-60,,57.5,115,-125,-125,,115,272.5,2,Wraps,SBD
60,Ellen Freeborn,F,1991,59.3,UK,O,110,120,127.5,,127.5,65,-67.5,-67.5,,65,125,132.5,140,,140,332.5,1,Wraps,SBD
60,Lesley Jayne Thomas,F,1966,59.6,UK,M3,100,-110,110,,110,55,60,65,-67.5,65,125,132.5,140,,140,315,1,Wraps,SBD
67.5,Aleksandra Stefanovic,F,1999,60.1,Serbia,T2,-75,75,77.5,,77.5,-35,-35,-35,,,90,100,-110,,100,,DQ,Wraps,SBD
67.5,Kitti Zsido,F,1994,62.8,Hungary,J,130,-140,140,,140,60,65,-70,,65,135,145,155,,155,360,2,Wraps,SBD
67.5,Radostina Lulova,F,1993,62.9,Bulgaria,J,130,142.5,152.5,,152.5,60,67.5,-72.5,,67.5,150,162.5,167.5,,167.5,387.5,1,Wraps,SBD
67.5,Sonja Vidojković,F,1997,64.3,Serbia,T3,70,75,-80,,75,30,-35,-35,,30,-70,75,90,,90,195,3,Wraps,SBD
67.5,Anita Simurina,F,1987,65.8,Montenegro,O,147.5,-155,155,-160,155,55,57.5,60,,60,120,127.5,132.5,,132.5,347.5,2,Wraps,SBD
67.5,Karolína Děrglová,F,1998,66.5,Czechia,T3,120,130,140,145,140,50,60,65,67.5,65,-140,140,150,-153,150,355,1,Wraps,SBD
67.5,Enikő Serfőző,F,1997,66.7,Hungary,T3,95,105,110,,110,60,67.5,-72.5,,67.5,105,112.5,117.5,,117.5,295,2,Wraps,SBD
67.5,Katalin Schindelrne Kis,F,1970,66.9,Hungary,M2,135,-145,145,,145,85,90,95,-97.5,95,135,150,-160,,150,390,1,Wraps,SBD
67.5,Anna Sokolov,F,1979,67.2,Israel,O,150,160,170,,170,60,65,67.5,,67.5,150,160,-162.5,,160,397.5,1,Wraps,SBD
67.5,Jennifer Milliron-O'Neil,F,1975,67.5,Ireland,M1,-200,-200,-200,,,,,,,,,,,,,,DQ,Wraps,SBD
75,Jelena Marinković,F,1983,68.5,Serbia,O,90,100,-110,,100,55,60,-62.5,,60,120,125,,,125,285,1,Wraps,SBD
75,Soňa Zbrehová,F,1998,69.3,Slovakia,T2,105,110,-112.5,,110,55,-60,60,,60,115,125,130,-135.5,130,300,1,Wraps,SBD
75,Vesna Gaspar,F,1992,70.6,Bosnia and Herzegovina,J,105,-117.5,-120,,105,45,-50,-52.5,,45,105,115,,,115,265,1,Wraps,SBD
75,Atina Tasheva,F,1998,71.5,Bulgaria,T3,90,102.5,-115,,102.5,40,47.5,-50,,47.5,100,115,-120,,115,265,2,Wraps,SBD
75,Aida Agüero,F,1961,71.6,Argentina,M4,190,207.5,220,,220,120,130,137,,137,180,190,-202.5,,190,547,1,Wraps,SBD
75,Suzana Pešić,F,1975,73.1,Serbia,M1,70,80,85,,85,50,-55,,,50,100,,,,100,235,1,Wraps,SBD
75,Veronika Rulíková,F,1997,74.1,Czechia,T3,110,125,132.5,137.5,132.5,-62.5,65,-67.5,,65,120,130,137.5,,137.5,335,1,Wraps,SBD
82.5,Tetiana Brodetska,F,1996,75.01,Ukraine,J,-140,-140,140,,140,60,-70,-70,,60,140,-150,150,,150,350,2,Wraps,SBD
82.5,Joanne Newman,F,1960,75.6,New Zealand,M4,70,-80,-80,,70,45,47.5,50,,50,120,125,127.5,130,127.5,247.5,1,Wraps,SBD
82.5,Mari Jäntti,F,1997,75.9,Finland,T3,100,-110,110,,110,50,-55,-55,,50,120,130,-135,,130,290,1,Wraps,SBD
82.5,Jana Vašková,F,1994,78.1,Slovakia,J,192.5,-202.5,202.5,,202.5,110,117.5,120,,120,200,215,222.5,233,222.5,545,1,Wraps,SBD
82.5,Almira Lizde,F,1982,79.4,Bosnia and Herzegovina,O,185,195,-202.5,,195,75,-85,85,,85,215,225,-232.5,235,225,505,2,Wraps,SBD
82.5,Vladana Radonjić,F,2001,81.3,Serbia,T1,110,125,135,140,135,40,50,-52.5,,50,110,120,127.5,,127.5,312.5,1,Wraps,SBD
82.5,Martina Dostálová,F,1983,82.5,Czechia,O,190,205,-217.5,,205,100,110,-117.5,121,110,200,220,230,-235.5,230,545,1,Wraps,SBD
82.5,Minna Pajulahti,F,1981,82.5,Finland,O,170,182.5,-195.5,,182.5,100,105,107.5,,107.5,182.5,195,-210,,195,485,3,Wraps,SBD
90,Nina Marković,F,1998,85.2,Montenegro,T3,120,130,140,,140,75,80,,,80,120,132.5,-140,,132.5,352.5,1,Wraps,SBD
90,Leticia Bertoto,F,1971,86.4,Argentina,M1,190,200,-210,,200,100,116,121,,121,185,200.5,210,,210,531,1,Wraps,SBD
90,Mariela Ortellado,F,1985,86.9,Argentina,O,170,190.5,-200,,190.5,105,115,120.5,-122.5,120.5,205,215,-222.5,,215,526,1,Wraps,SBD
110+,Colleen Fitzpatrick,F,1971,141,Canada,M2,-120,120,150,157.5,150,-125,125,-132.5,,125,150,165,-180,,165,440,1,Wraps,SBD
56,Aleksandar Janjanin,M,1999,53.1,Serbia,T2,115,120,,,120,70,75,-80,,75,150,-160,-160,160,150,345,1,Wraps,SBD
56,Istvan Lszlo Vereb,M,2002,54.2,Hungary,T1,70,80.5,90,-93,90,45,50,58,,58,80,90,-102.5,102.5,90,238,1,Wraps,SBD
56,Pavel Balážik,M,1979,55.6,Slovakia,O,110,120,-135,,120,80,85,90,,90,135,147.5,-160,-160,147.5,357.5,1,Wraps,SBD
60,Ellyahu Elyashev,M,1998,59.7,Israel,T3,130,140,150,,150,-100,100,102.5,,102.5,150,160,170,,170,422.5,1,Wraps,SBD
60,Štefan Lehocký,M,2001,59.9,Slovakia,T1,105,120,125.5,,125.5,50,-60,-60,,50,115,137.5,145,,145,320.5,1,Wraps,SBD
60,Jerome Latscha,M,1976,60,France,O,-145,145,155,-171.5,155,95,100,102.5,,102.5,185,195,-200,,195,452.5,1,Wraps,SBD
67.5,Ernest Ruzin,M,1937,61.6,Israel,M8,132.5,-140,-140,,132.5,70,72.5,75,,75,152.5,161,,,161,368.5,1,Wraps,SBD
67.5,Jonathan Bar,M,1996,61.9,France,J,125,135,-142.5,,135,70,77.5,80,,80,140,155,165,,165,380,3,Wraps,SBD
67.5,István Gyuricska Jr,M,2000,66.1,Hungary,T1,120,130,-140,,130,90,100,-105,110,100,130,150,-160,,150,380,1,Wraps,SBD
67.5,Attila Márk Kiss,M,1996,66.8,Hungary,J,180,-190,-190,,180,112.5,120,122.5,,122.5,-190,200,205,,205,507.5,1,Wraps,SBD
67.5,Gary Bobrowitz,M,1952,66.9,Canada,M5,50,,,,50,113,115,-117.5,,115,65,160,-165,,160,325,1,Wraps,SBD
67.5,Nikola Stanković,M,2000,67.1,Serbia,T2,120,135,146,,146,80,-85,-85,,80,-150,150,160,,160,386,1,Wraps,SBD
67.5,Ivan Ivanov,M,1994,67.4,Bulgaria,J,155,160,165,,165,105,110,-115,,110,210,-225,-230,,210,485,2,Wraps,SBD
67.5,Nikola Milić,M,1991,67.5,Serbia,O,-150,150,160,,160,100,110,-115,,110,160,170,-172.5,,170,440,1,Wraps,SBD
67.5,Aleksey Okunev,M,1975,67.5,Russia,M1,240,-260,,,240,140,150,-155,,150,240,-250,-250,,240,630,1,Wraps,SBD
75,Dominik Minárik,M,1999,68.1,Slovakia,T2,160,172.5,-177.5,,172.5,65,72.5,75,,75,170,182.5,-190,,182.5,430,1,Wraps,SBD
75,Mishel Velichkov,M,1991,69.2,Bulgaria,O,150,170,180,,180,110,120,127.5,,127.5,210,240,-250,,240,547.5,1,Wraps,SBD
75,Mate Csiszar,M,2000,69.6,England,T1,155,165,177.5,,177.5,80,90,101,,101,180,202.5,210,,210,488.5,1,Wraps,SBD
75,Esko Ketola,M,1941,70.7,Finland,M7,-150,-150,,,,,,,,,,,,,,,DQ,Wraps,SBD
75,Danijel Parac,M,1994,71.3,Croatia,J,200,210,215,,215,110,-115,115,,115,215,230,240,,240,570,1,Wraps,SBD
75,Balazs Hosszu,M,1999,72.7,Hungary,T2,140,150,-155,,150,70,80,-85,,80,-155,160,170,,170,400,3,Wraps,SBD
75,Sejfo Šehović,M,1959,72.9,Bosnia and Herzegovina,M4,-160,160,175,,175,100,-110,,,100,200,220,-231,,220,495,1,Wraps,SBD
75,Stefan Simonović,M,1998,73.3,Serbia,T3,-170,-170,-170,,,,,,,,,,,,,,DQ,Wraps,SBD
75,Gajdacs Ferenc,M,1993,73.5,Hungary,J,-205,205,217.5,,217.5,-140,140,145,,145,185,197.5,-207.5,,197.5,560,2,Wraps,SBD
75,Guylhem Feraud,M,1945,73.6,France,M7,120,130,137.5,,137.5,100,110,-113,,110,160,170,176,,176,423.5,1,Wraps,SBD
75,Roman Mandík,M,1968,73.8,Czechia,M2,152.5,162.5,-170,,162.5,105,110,112.5,,112.5,180,190,195,,195,470,1,Wraps,SBD
75,Adriano DaCosta,M,1963,74.3,France,M3,232.5,-247.5,-252.5,,232.5,107.5,120,127.5,,127.5,227.5,-240,,,227.5,587.5,1,Wraps,SBD
75,Sanel Čičić,M,1993,74.4,Serbia,J,170,-185,-191,,170,120,127.5,132.5,,132.5,185,195,-205,,195,497.5,4,Wraps,SBD
75,Jozef Gabrhel,M,1955,74.5,Slovakia,M5,125,135,140,,140,95,100,-105,,100,155,165,175,,175,415,1,Wraps,SBD
75,Ivan Kraev,M,1994,74.7,Bulgaria,J,170,-185,192.5,,192.5,125,-132.5,132.5,,132.5,210,220,-237.5,,220,545,3,Wraps,SBD
75,Uros Savic,M,1999,74.7,Serbia,T2,165,-175,175,,175,85,95,-102.5,,95,-150,150,-162.5,,150,420,2,Wraps,SBD
75,Ivan Stanković,M,1974,75,Serbia,M1,-220,-236,-236,,,,,,,,,,,,,,DQ,Wraps,SBD
75,Pavel Tilis,M,1978,75,Israel,O,-220,-220,-220,,,,,,,,,,,,,,DQ,Wraps,SBD
82.5,Tibor Zvada,M,1958,78.2,Slovakia,M4,120,-130,-130,,120,80,,,,80,160,170,,,170,370,1,Wraps,SBD
82.5,Belin Virgile,M,1978,78.4,France,O,207.5,220,-230,,220,120,-130,-130,,120,230,-242.5,,,230,570,4,Wraps,SBD
82.5,Vladimir Zhadenov,M,1987,79.1,Russia,O,-270,270,-300,,270,170,180,190,,190,220,240,260,,260,720,1,Wraps,SBD
82.5,Nemanja Spalevic,M,1993,79.8,Montenegro,J,195,-205,215,,215,-120,-120,-120,,,,,,,,,DQ,Wraps,SBD
82.5,Jovan Sadagić,M,1992,80.2,Serbia,J,220,236,245,,245,110,120,-125,,120,215,225,-235,,225,590,2,Wraps,SBD
82.5,Zsolt Horváth,M,1975,80.6,Hungary,M1,-210,215,-220,,215,135,142.5,-145,,142.5,235,242.5,245,,245,602.5,2,Wraps,SBD
82.5,Stanislav Simeonov,M,1989,81.1,Bulgaria,O,225,240,247.5,,247.5,135,145,155,,155,240,250,260,,260,662.5,2,Wraps,SBD
82.5,Bill Healy,M,1950,81.1,Ireland,M6,-210,210,-230,,210,132.5,146,-147.5,,146,175,,,,175,531,1,Wraps,SBD
82.5,Šarak Tarik,M,1997,81.1,Bosnia and Herzegovina,T3,205,-215,-215,-225,205,110,120,125,,125,-215,-225,230,,230,560,1,Wraps,SBD
82.5,Dmytro Mikhu,M,1993,81.3,Ukraine,J,160,180,-190,,180,125,-135,-140,,125,-160,170,-200,,170,475,4,Wraps,SBD
82.5,Dragan Božić,M,1986,81.9,Bosnia and Herzegovina,O,220,240,250,,250,127.5,-132.5,132.5,,132.5,230,240,-245,,240,622.5,3,Wraps,SBD
82.5,Marko Dimitrov,M,1980,82,Serbia,O,180,190,200,,200,115,-120,120,,120,185,195,-205,,195,515,5,Wraps,SBD
82.5,Peter Lehocký,M,1972,82.5,Slovakia,M1,215,237.5,-247.5,,237.5,150,157.5,160,,160,250,270,275,,275,672.5,1,Wraps,SBD
82.5,Siniša Knežević,M,1971,82.5,Croatia,M2,-190,190,-225,,190,115,125,-130,,125,190,210,,,210,525,1,Wraps,SBD
82.5,Vladyslav Fedorenko,M,1993,82.5,Ukraine,J,-230,-230,230,,230,135,-145,-145,,135,210,-225,,,210,575,3,Wraps,SBD
82.5,Szilveszter Zsilák,M,1992,82.5,Hungary,J,210,220,-225,,220,135,140,147.5,,147.5,230,240,245,,245,612.5,1,Wraps,SBD
90,Mihály Bakó,M,1974,84.8,Hungary,M1,180,-202.5,202.5,,202.5,120,130,137.5,,137.5,200,222.5,,,222.5,562.5,2,Wraps,SBD
90,Zoltán Jurko,M,1940,85.1,Slovakia,M8,95,106,110,,110,40,47.5,-50,,47.5,110,126,-130,,126,283.5,1,Wraps,SBD
90,Boban Šaranović,M,1990,86.3,Montenegro,O,-250,-250,-250,,,,,,,,,,,,,,DQ,Wraps,SBD
90,Róbert Tumpek,M,1993,86.6,Hungary,J,260,272.5,277.5,,277.5,140,145,150,,150,280,-285,-287.5,,280,707.5,2,Wraps,SBD
90,Eckhard Briedenhann,M,1993,86.8,South Africa,J,250,-265,-265,,250,145,-155,-155,,145,230,250,-255,,250,645,4,Wraps,SBD
90,Peter Herák,M,1959,87,Slovakia,M4,200,220,232.5,-241,232.5,100,-110,-110,,100,200,217.5,222.5,,222.5,555,1,Wraps,SBD
90,Milan Stanković,M,1995,87.2,Serbia,J,-260,260,275,,275,140,-145,,,140,300,-310,310,-328.5,310,725,1,Wraps,SBD
90,Miodrag Tomanović,M,1985,87.3,Serbia,O,-245,245,252.5,,252.5,160,-165,-165,,160,260,267.5,270,,270,682.5,1,Wraps,SBD
90,Benjamin Mező Áron,M,1996,87.3,Hungary,T3,150,-170,-190,,150,120,130,-137.5,,130,205,215,-227.5,,215,495,3,Wraps,SBD
90,Andrija Simonović,M,1991,87.4,Serbia,O,240,250,-260,,250,150,-155,155,,155,230,-240,,,230,635,2,Wraps,SBD
90,Dorian Witosław,M,1998,87.4,Poland,T3,175,190,-200,,190,95,-102.5,-102.5,,95,205,215,-225,,215,500,2,Wraps,SBD
90,Sava Vasiljevski,M,1950,88.6,Serbia,M6,160,-170,170,,170,70,-80,80,,80,170,190,200,,200,450,2,Wraps,SBD
90,Bojan Tanasković,M,1997,88.7,Serbia,T3,-190,190,,,190,125,-135,-135,,125,250,-260,-260,,250,565,1,Wraps,SBD
90,Jakub Štefanica,M,1985,89.2,Czechia,O,-210,225,-235,,225,130,140,-145,,140,240,-250,,,240,605,3,Wraps,SBD
90,Imad Bahria,M,1975,89.4,France,M1,282.5,292.5,302.5,-307.5,302.5,137.5,140,-142.5,,140,-300,300,-310,,300,742.5,1,Wraps,SBD
90,Mirko Keković,M,1995,89.4,Montenegro,J,220,-230,235,,235,160,165,170,,170,230,245,247.5,,247.5,652.5,3,Wraps,SBD
90,Haris Canović,M,1991,89.7,Montenegro,O,-250,-260,-260,,,,,,,,,,,,,,DQ,Wraps,SBD
90,Rodrigo Sanchez,M,1970,89.8,Argentina,M2,180,220,238,,238,140,160,165,170,165,200,230,250,,250,653,1,Wraps,SBD
90,Stefan Sochaňski,M,1948,89.9,Poland,M6,165,180,-195,,180,92.5,-97.5,97.5,,97.5,185,205,217.5,,217.5,495,1,Wraps,SBD
100,Vladimír Svoboda,M,1952,92.2,Czechia,M5,140,150,160,,160,100,110,115,,115,150,160,175,,175,450,2,Wraps,SBD
100,Vladimir Gosin,M,1965,92.4,Israel,M3,200,210,220,,220,150,155,-160,,155,230,240,255,,255,630,2,Wraps,SBD
100,Denis Poleshko,M,1987,93,Ukraine,O,260,275,285,,285,190,200,-208,,200,275,285,-290,,285,770,2,Wraps,SBD
100,József Sztanke,M,1954,95.1,Hungary,M5,220,-240,240,,240,155,170,-177.5,,170,230,240,-245,,240,650,1,Wraps,SBD
100,Čigoja Nikola,M,1990,95.3,Bosnia and Herzegovina,O,260,270,,,270,160,170,-175,,170,260,272.5,-280,,272.5,712.5,6,Wraps,SBD
100,Ádám Adorján,M,1995,96.2,Hungary,J,215,225,-235,,225,125,130,132.5,,132.5,-230,230,250,,250,607.5,5,Wraps,SBD
100,Petr Nosek,M,1959,96.5,Czechia,M4,135,145,155,,155,110,-115,115,,115,170,180,190,,190,460,2,Wraps,SBD
100,Benchabane Fabrice,M,1971,97,France,M2,215,225,230,,230,135,145,147.5,,147.5,255,265,-271,,265,642.5,2,Wraps,SBD
100,Valery Tomilov,M,1965,97,Israel,M3,215,227.5,235,,235,160,-171,171,,171,-225,225,,,225,631,1,Wraps,SBD
100,Gregorz Drewniany,M,1977,97.2,Poland,O,200,-220,-225,,200,150,160,-165,,160,220,-235,,,220,580,8,Wraps,SBD
100,Ádám Jakubek,M,2001,97.2,Slovakia,T1,150,160,-170,,160,102.5,107.5,-110,,107.5,185,195,-200,,195,462.5,1,Wraps,SBD
100,Jakub Swiezko,M,2001,97.4,Poland,T1,100,110,125,,125,95,102.5,-105,,102.5,130,140,155,,155,382.5,1,Wraps,SBD
100,Wrŏbel Wiesław,M,1957,98,Poland,M4,-210,210,230,,230,135,-137.5,,,135,230,240,250,,250,615,1,Wraps,SBD
100,Kamen Momchilov,M,1986,98.5,Bulgaria,O,220,-230,-230,,220,160,167.5,172.5,,172.5,-260,270,277.5,,277.5,670,7,Wraps,SBD
100,Slavyan Stoichev,M,1986,98.6,Bulgaria,O,265,275,285,,285,160,167.5,172.5,,172.5,270,280,-285,,280,737.5,4,Wraps,SBD
100,Lukáš Žigmund,M,1987,98.7,Czechia,O,-280,-280,,,,,,,,,,,,,,,DQ,Wraps,SBD
100,Teemu Mäkynen,M,1993,98.7,Finland,J,230,250,260,,260,130,145,-150,,145,250,270,285,,285,690,4,Wraps,SBD
100,Szabolcs Balázs,M,1988,98.8,Hungary,O,260,270,280,,280,155,162.5,167.5,,167.5,300,305,,,305,752.5,3,Wraps,SBD
100,Steve Hampton,M,1969,98.8,New Zealand,M2,220,235,245,,245,150,157.5,162.5,,162.5,220,235,240,,240,647.5,1,Wraps,SBD
100,Mikko Korpeinen,M,1977,99,Finland,O,250,260,270,,270,150,155,160,,160,280,300,-310,,300,730,5,Wraps,SBD
100,Dan Stewart,M,1993,99.1,UK,J,300,-315,-315,,300,190,195,198.5,,198.5,285,-292.5,-292.5,,285,783.5,2,Wraps,SBD
100,Dušan Jovanović,M,1992,99.2,Serbia,J,-287.5,287.5,-300,,287.5,191,196,200,,200,-300,300,305,,305,792.5,1,Wraps,SBD
100,Artem Dmytruk,M,1993,99.2,Ukraine,J,-252.5,252.5,-265,,252.5,180,187.5,-192.5,,187.5,270,290,,,290,730,3,Wraps,SBD
100,Ilari Ventä,M,1993,99.7,Finland,J,200,220,-230,,220,115,122.5,-130,,122.5,190,210,-225,,210,552.5,6,Wraps,SBD
100,Josua Wiseman,M,1984,99.8,Australia,O,305,-322.5,-330,,305,180,187.5,,,187.5,-300,300,310,,310,802.5,1,Wraps,SBD
110,Artem Khrystin,M,1993,102.1,Ukraine,J,200,-220,-220,,200,140,150,-155,,150,200,-220,,,200,550,4,Wraps,SBD
110,Aleksandar Kojić,M,1993,103.7,Bosnia and Herzegovina,J,220,-235,-235,,220,100,110,117.5,,117.5,230,240,-255,,240,577.5,3,Wraps,SBD
110,Dmytro Hotlashov,M,1985,104.4,Ukraine,O,200,220,240,,240,140,150,155,,155,200,-230,-230,,200,595,3,Wraps,SBD
110,Mino Gustavo Alberto,M,1971,104.6,Argentina,M2,160,-210,-220,,160,100,,,,100,100,,,,100,360,2,Wraps,SBD
110,Vladimir Jašćur,M,1987,105.7,Serbia,O,205,215,-225,,215,125,-135,-135,,125,205,217.5,225,,225,565,4,Wraps,SBD
110,Joseph Vaydair,M,1970,106.3,USA,M2,-250,-275,-275,,,,,,,,,,,,,,DQ,Wraps,SBD
110,Jacek Šwierzko,M,1972,106.4,Poland,M1,120,-130,-135,,120,100,-110,-110,,100,140,155,165,,165,385,3,Wraps,SBD
110,Stanislav Jurčišin,M,1946,106.6,Slovakia,M7,120,-130,130,,130,-90,90,95,,95,140,155,160,,160,385,1,Wraps,SBD
110,Darko Lazarević,M,1981,107.1,Montenegro,O,270,285,-292.5,,285,-165,165,-175,,165,-280,-280,280,,280,730,1,Wraps,SBD
110,Igor Zarubov,M,1971,107.7,Russia,M2,200,215,225,,225,150,160,165,,165,200,210,220,,220,610,1,Wraps,SBD
110,Janusz Witkowski,M,1960,107.8,Poland,M4,170,185,-200,,185,140,145,147.5,,147.5,190,205,215,,215,547.5,2,Wraps,SBD
110,Miloš Savić,M,1976,107.9,Serbia,M1,265,-280,-280,,265,-160,160,-167.5,,160,240,-265,,,240,665,2,Wraps,SBD
110,Jaroslav Šolc,M,1957,108,Slovakia,M4,200,210,-220,,210,140,147.5,152.5,,152.5,200,210,,,210,572.5,1,Wraps,SBD
110,Martin Chour,M,1984,108.5,Czechia,O,170,185,200,,200,145,160,-170,,160,240,-265,267.5,,267.5,627.5,2,Wraps,SBD
110,Hrvoje Sirovec,M,1992,108.9,Croatia,J,-320,,,,,,,,,,,,,,,,DQ,Wraps,SBD
110,András Szilágyi,M,1992,108.9,Hungary,J,250,265,-270,,265,190,200,-202.5,,200,270,280,285,,285,750,2,Wraps,SBD
110,Zsolt Antal,M,1975,109.1,Hungary,M1,250,260,270,,270,180,190,-200.5,,190,270,285,295,,295,755,1,Wraps,SBD
110,Jackson Hinch,M,1992,109.2,New Zealand,J,270,285,295,,295,180,190,,,190,-300,-300,300,,300,785,1,Wraps,SBD
110,Stojan Radonjić,M,1982,109.8,Montenegro,O,-270,-270,-280,,,,,,,,,,,,,,DQ,Wraps,SBD
125,Alfredo Martín Rojas,M,1985,114.3,Argentina,O,290,-305,,,290,145,157.5,165,,165,290,300,-310,,300,755,5,Wraps,SBD
125,Nikola Lazović,M,1982,114.8,Montenegro,O,250,260,-271.5,,260,-180,-180,180,,180,300,-317.5,-317.5,,300,740,6,Wraps,SBD
125,Goran Jović,M,1980,117.1,Serbia,O,300,-320,-330,,300,150,155,-160,,155,310,-325,-325,,310,765,4,Wraps,SBD
125,Jordan Loic Duvauchelle,M,1997,117.7,France,T3,-305,305,320,-330,320,170,180,187.5,-191,187.5,-300,320,-330,,320,827.5,1,Wraps,SBD
125,Daglan Holland,M,1965,120.9,UK,M3,-250,250,280,,280,160,180,-200,,180,-170,170,,,170,630,1,Wraps,SBD
125,Gábor Bencze,M,1978,120.9,Hungary,O,280,290,300,,300,180,200,-207.5,,200,290,305,310,,310,810,3,Wraps,SBD
125,Hamish Coulter,M,1982,121.4,New Zealand,O,-335,335,-365.5,-370.5,335,210,222.5,-227.5,,222.5,290,315,-335,,315,872.5,2,Wraps,SBD
125,Ostojić Strahinja,M,1993,121.8,Serbia,J,-290,290,-311,,290,195,-203.5,203.5,,203.5,280,307.5,320,,320,813.5,1,Wraps,SBD
125,Alexander Zaytsev,M,1980,122,Russia,O,320,350,-370,,350,210,230,,,230,290,-310,310,,310,890,1,Wraps,SBD
125,Aleksei Tarasenko,M,1971,124.2,Russia,M2,280,-300,300,,300,210,220,227.5,,227.5,245,265,-285,,265,792.5,1,Wraps,SBD
125,Bemes Gergö Mark,M,1998,125,Hungary,T3,295,310,321,,321,160,170,180,-191.5,180,285,300,310,,310,811,2,Wraps,SBD
140,Slicherbyna Andrey,M,1982,125.7,Ukraine,O,260,280,,,280,150,-170,-170,,150,220,240,260,,260,690,4,Wraps,SBD
140,Romuald Massé,M,1992,136,France,O,305,325,335,,335,230,240,-245.5,,240,240,260,275,,275,850,1,Wraps,SBD
140,Siniša Jović,M,1968,137.1,Serbia,M2,-220,-220,220,,220,150,-160,160,,160,200,230,245,,245,625,1,Wraps,SBD
140,Aleksandar Lukić,M,1982,137.6,Bosnia and Herzegovina,O,280,300,-315,,300,190,200,207.5,,207.5,300,312.5,317.5,,317.5,825,2,Wraps,SBD
140,Anton Buckner,M,1984,137.6,South Africa,O,287.5,292.5,-297.5,,292.5,157.5,165,-170,,165,287.5,295,-305,,295,752.5,3,Wraps,SBD
140,Jason Gillespie,M,1972,137.9,Australia,M1,220,240,255,,255,175,190,202.5,,202.5,250,272.5,-282.5,,272.5,730,1,Wraps,SBD
140+,Timothy Agnew,M,1987,146.1,Canada,O,180,-225,-235,,180,127.5,147.5,-155,,147.5,160,190,-200,,190,517.5,2,Wraps,SBD
140+,Darien Bester,M,1994,148.3,South Africa,J,290,320,330,,330,190,205,215,,215,300,315,330,,330,875,1,Wraps,SBD
140+,Petr Petráš,M,1984,168.2,Czechia,O,420,450,-460,,450,270,285,-295,,285,380,-402.5,,,380,1115,1,Wraps,SBD
44,Irina Pomerantsev,F,1970,41.5,Israel,M2,,,,,,57.5,60,62.5,,62.5,,,,,,62.5,1,Raw,B
48,Nevenka Crnogorčević,F,1964,47.5,Serbia,M3,,,,,,-35,35,38.5,,38.5,,,,,,38.5,1,Raw,B
52,Ana Knežević,F,1997,51.2,Serbia,T3,,,,,,30,32.5,35,,35,,,,,,35,1,Raw,B
56,Marta Seres,F,2003,52.5,Hungary,T1,,,,,,30,32.5,35,,35,,,,,,35,2,Raw,B
56,Elizabet Tomilov,F,2003,52.6,Israel,T1,,,,,,40,45,47.5,-50,47.5,,,,,,47.5,1,Raw,B
56,Daniela Silva,F,1969,53,Argentina,M2,,,,,,45,50,55,,55,,,,,,55,1,Raw,B
56,Tereza Mlýnková,F,1993,53.1,Czechia,J,,,,,,50,55,-62.5,-63,55,,,,,,55,1,Raw,B
56,Dragana Gojković,F,1970,53.3,Serbia,M2,,,,,,37.5,40,-42.5,,40,,,,,,40,2,Raw,B
56,Ticia Babos,F,1997,53.4,Hungary,T3,,,,,,45,52.5,-57.5,,52.5,,,,,,52.5,1,Raw,B
56,Ina Baneva,F,1988,54.9,Bulgaria,O,,,,,,70,75,77.5,,77.5,,,,,,77.5,1,Raw,B
56,Bettina Razzouki-Korkis,F,1965,55,Poland,M3,,,,,,60,67.5,-70,,67.5,,,,,,67.5,1,Raw,B
56,Elena Levova,F,1977,55.9,Russia,O,,,,,,45,47.5,-50,,47.5,,,,,,47.5,2,Raw,B
56,Ilona Egri,F,1972,55.9,Hungary,M1,,,,,,57.5,62.5,-65,,62.5,,,,,,62.5,1,Raw,B
60,Danijela Jakovljević,F,1990,56.7,Serbia,O,,,,,,32.5,37.5,-40,,37.5,,,,,,37.5,2,Raw,B
60,Vanessa Torres,F,1986,58,Finland,O,,,,,,92.5,-95,-95,,92.5,,,,,,92.5,1,Raw,B
60,Minna Paler,F,1968,58.7,Finland,M2,,,,,,70,72.5,75,78,75,,,,,,75,1,Raw,B
67.5,Sonja Vidojković,F,1997,64,Serbia,T3,,,,,,30,32.5,-35,,32.5,,,,,,32.5,1,Raw,B
67.5,Monika Mikulová,F,1991,65.5,Slovakia,O,,,,,,82.5,90,-95,,90,,,,,,90,1,Raw,B
67.5,Virág Horváth,F,1992,65.5,Hungary,J,,,,,,45,-50,-50,,45,,,,,,45,1,Raw,B
67.5,Katalin Schindelrne Kis,F,1970,66.1,Hungary,M2,,,,,,85,90,92.5,,92.5,,,,,,92.5,1,Raw,B
75,Jelena Marinković,F,1983,69,Serbia,O,,,,,,55,60,-65,,60,,,,,,60,1,Raw,B
75,Tereza Burkoňová,F,1978,70.8,Czechia,O,,,,,,55,60,-62.5,,60,,,,,,60,2,Raw,B
75,Aida Agüero,F,1961,70.9,Argentina,M4,,,,,,120,130,135,,135,,,,,,135,1,Raw,B
75,Veronika Rulíková,F,1997,74.2,Czechia,T3,,,,,,70,-70.5,70.5,,70.5,,,,,,70.5,1,Raw,B
82.5,Gisela Witte,F,1958,78.2,Germany,M4,,,,,,45,55,65,70,65,,,,,,65,1,Raw,B
82.5,Leticia Bertotto,F,1971,81.8,Argentina,M2,,,,,,110,-120,120,,120,,,,,,120,1,Raw,B
90,Minna Pajulahti,F,1981,84.7,Finland,O,,,,,,95,102.5,-112.5,,102.5,,,,,,102.5,2,Raw,B
90,Nina Marković,F,1998,85.7,Montenegro,T3,,,,,,72.5,77.5,80,,80,,,,,,80,1,Raw,B
90,Mariela Ortellado,F,1985,85.9,Argentina,O,,,,,,100,105,115,,115,,,,,,115,1,Raw,B
110,Andreja Valant,F,1980,91,Slovenia,O,,,,,,65,-70,-70,,65,,,,,,65,1,Raw,B
110+,Colleen Fitzpatrick,F,1971,141.4,Canada,M2,,,,,,-125,125,130,-137.5,130,,,,,,130,1,Raw,B
56,István László Vereb,M,2002,53.9,Hungary,T1,,,,,,45,50,55,,55,,,,,,55,1,Raw,B
67.5,Lazar Manic,M,1991,60.6,Serbia,O,,,,,,105,115,120,126,120,,,,,,120,2,Raw,B
67.5,Patryk Strzałek,M,2001,65.1,Poland,T1,,,,,,70,77.5,82.5,,82.5,,,,,,82.5,2,Raw,B
67.5,György Fonyódi,M,1943,65.2,Hungary,M7,,,,,,75,80,-85,,80,,,,,,80,1,Raw,B
67.5,Volodymyr Malyk,M,1987,65.2,Ukraine,O,,,,,,80,-90,-95,,80,,,,,,80,4,Raw,B
67.5,Nebojsa Sazdovski,M,1987,65.2,Macedonia,O,,,,,,125,135,137.5,140,137.5,,,,,,137.5,1,Raw,B
67.5,Tomislav Puhin,M,1975,65.8,Croatia,M1,,,,,,90,95,97.5,,97.5,,,,,,97.5,2,Raw,B
67.5,Martin Kovačevski,M,1992,65.9,Macedonia,J,,,,,,125,135,-140,,135,,,,,,135,1,Raw,B
67.5,Istvan Gyuricska Jnr,M,2000,66.2,Hungary,T1,,,,,,90,-100,100,-112.5,100,,,,,,100,1,Raw,B
67.5,Hristijan Strainović,M,1983,66.2,Serbia,O,,,,,,100,-112.5,-112.5,,100,,,,,,100,3,Raw,B
67.5,Márton Munkácsi,M,2002,66.6,Hungary,T1,,,,,,55,60,-70,,60,,,,,,60,3,Raw,B
67.5,Boshko Stamenkovski,M,1971,66.7,Macedonia,M2,,,,,,115,120,-125,-125,120,,,,,,120,1,Raw,B
67.5,Alexey Okunev,M,1975,67.3,Russia,M1,,,,,,150,-155,-155,,150,,,,,,150,1,Raw,B
75,Sergejs Isčenko,M,1992,71.5,Latvia,O,,,,,,127.5,135,-140,,135,,,,,,135,2,Raw,B
75,Guylhem Feraud,M,1945,72.2,France,M7,,,,,,105,112.5,,,112.5,,,,,,112.5,1,Raw,B
75,Emmanuel Poulain,M,1979,72.5,France,O,,,,,,-130,130,-135,,130,,,,,,130,4,Raw,B
75,Stefan Simonović,M,1998,72.9,Serbia,T3,,,,,,-112.5,112.5,-115,,112.5,,,,,,112.5,1,Raw,B
75,Jacky Dubus,M,1961,73,France,M4,,,,,,100,105,-110,,105,,,,,,105,1,Raw,B
75,Ivaylo Bosev,M,1987,73.1,Bulgaria,O,,,,,,145,150,155,,155,,,,,,155,1,Raw,B
75,Zsolt Karlilk,M,1972,73.1,Hungary,M1,,,,,,150,155,160,,160,,,,,,160,1,Raw,B
75,Alexandr Rabinovich,M,1967,74.5,Israel,M2,,,,,,150,-160,,,150,,,,,,150,1,Raw,B
75,Dušan Arizanović,M,1991,74.7,Serbia,O,,,,,,120,-127.5,132.5,,132.5,,,,,,132.5,3,Raw,B
75,Sanel Čičić,M,1993,74.8,Serbia,J,,,,,,120,-130,-130,,120,,,,,,120,1,Raw,B
82.5,Dmitrii Kukharenko,M,1969,75.5,Spain,M2,,,,,,-175,-175,175,,175,,,,,,175,1,Raw,B
82.5,Patrik Tomáš,M,1996,77.2,Czechia,J,,,,,,135,-140,-140,,135,,,,,,135,2,Raw,B
82.5,Aleksandr Tkachuk,M,1940,79,Russia,M8,,,,,,-90,90,100,102.5,100,,,,,,100,1,Raw,B
82.5,Nagy Miklós,M,1997,80.6,Hungary,T3,,,,,,145,152.5,160,,160,,,,,,160,1,Raw,B
82.5,Leonid Averbakh,M,1959,80.7,Israel,M4,,,,,,110,115,-120,,115,,,,,,115,1,Raw,B
82.5,Dániel Égei,M,1992,80.7,Hungary,O,,,,,,150,160,165,,165,,,,,,165,2,Raw,B
82.5,Bill Healy,M,1950,81,Ireland,M6,,,,,,132.5,142.5,147.5,,147.5,,,,,,147.5,1,Raw,B
82.5,Zoltán Megyeri,M,1974,81,Hungary,M1,,,,,,150,155,160,,160,,,,,,160,1,Raw,B
82.5,Boban Stanojlović,M,1995,81.5,Serbia,J,,,,,,150,165,-175,,165,,,,,,165,1,Raw,B
82.5,Nikola Reljić,M,1988,81.6,Serbia,O,,,,,,152.5,-162.5,-165,,152.5,,,,,,152.5,3,Raw,B
82.5,István Gyuricska Jr,M,1967,82,Hungary,M2,,,,,,150,165,-177.5,,165,,,,,,165,2,Raw,B
82.5,Alexander Bark,M,1963,82.1,Israel,M3,,,,,,107.5,112.5,115,,115,,,,,,115,2,Raw,B
82.5,Matěj Syrovátka,M,1998,82.1,Czechia,T2,,,,,,150,162.5,-167.5,-171,162.5,,,,,,162.5,1,Raw,B
82.5,Robert Tomáš,M,1972,82.2,Czechia,M1,,,,,,135,140,-145,,140,,,,,,140,2,Raw,B
82.5,Đorđe Nikolić,M,1992,82.3,Serbia,O,,,,,,150,160,168,-171,168,,,,,,168,1,Raw,B
82.5,Ben Kelly,M,1980,82.3,Ireland,O,,,,,,140,-147.5,,,140,,,,,,140,4,Raw,B
82.5,Jozef Slimák,M,1966,82.4,Slovakia,M3,,,,,,120,130,-140,,130,,,,,,130,1,Raw,B
90,Alex Papír,M,1945,83.6,Israel,M7,,,,,,107.5,112.5,-117.5,,112.5,,,,,,112.5,1,Raw,B
90,Djordje Pjanovic,M,1999,86.5,Serbia,T2,,,,,,130,136,145,-150,145,,,,,,145,1,Raw,B
90,Ondřej Kohout,M,2000,87,Czechia,T2,,,,,,115,125,,,125,,,,,,125,2,Raw,B
90,Attila Nyikos-Kiss,M,1970,87.2,Hungary,M2,,,,,,120,125,-132.5,,125,,,,,,125,2,Raw,B
90,Stefan Popovski,M,1988,87.6,Macedonia,O,,,,,,195,-200,-200,,195,,,,,,195,2,Raw,B
90,Denis Jean-Francois,M,1956,88,France,M5,,,,,,165,170,175,,175,,,,,,175,1,Raw,B
90,Dražen Mladenović,M,1992,88,Bosnia and Herzegovina,O,,,,,,155,162.5,-170,,162.5,,,,,,162.5,6,Raw,B
90,Ivan Schoblocher,M,1989,88.2,Croatia,O,,,,,,170,177.5,-180,,177.5,,,,,,177.5,5,Raw,B
90,Mihály Gönczöl,M,1985,88.4,,O,,,,,,220,230,240,-245,240,,,,,,240,1,Raw,B
90,Benjamin Mező Áron,M,1996,88.6,Hungary,T3,,,,,,-130,-132.5,132.5,,132.5,,,,,,132.5,2,Raw,B
90,Silvestar Penkov,M,1983,88.6,Bulgaria,O,,,,,,,,,,,,,,,,,DQ,Raw,B
90,Rafał Ogórek,M,1988,89.2,Poland,O,,,,,,185,190,-197.5,,190,,,,,,190,3,Raw,B
90,Mirko Keković,M,1995,89.3,Montenegro,J,,,,,,160,,,,160,,,,,,160,1,Raw,B
90,Andrey Bogatkov,M,1975,89.5,Russia,M1,,,,,,150,-160,-165,,150,,,,,,150,1,Raw,B
90,Patryk Kozieł,M,1987,89.7,Poland,O,,,,,,-190,190,-197.5,,190,,,,,,190,4,Raw,B
90,Lukáš Tomášov,M,1997,89.9,Czechia,T3,,,,,,130,137.5,-145,,137.5,,,,,,137.5,1,Raw,B
90,Rodrigo Sanchez,M,1970,89.9,Argentina,M2,,,,,,140,150,160,,160,,,,,,160,1,Raw,B
90,Rami Leiviskä,M,1978,89.9,Finland,O,,,,,,-187.5,-187.5,-192.5,,,,,,,,,DQ,Raw,B
90,Dmitrii Petrov,M,1986,90,Russia,O,,,,,,-185,-187.5,-197.5,,,,,,,,,DQ,Raw,B
100,László Kupcsik,M,1967,90.8,Hungary,M2,,,,,,215,222.5,225,-227.5,225,,,,,,225,1,Raw,B
100,Bojan Tanasković,M,1997,90.9,Serbia,T3,,,,,,120,130,-140,,130,,,,,,130,3,Raw,B
100,Patrice Belmir,M,1953,92.5,France,M5,,,,,,100,105,110,,110,,,,,,110,2,Raw,B
100,Blagoje Baosic,M,1978,92.6,Montenegro,O,,,,,,160,170,-185,,170,,,,,,170,5,Raw,B
100,Radomir Jovanović,M,1943,94.6,Serbia,M7,,,,,,80,,,,80,,,,,,80,1,Raw,B
100,Stephane Bouton,M,1972,95.4,France,M1,,,,,,142.5,152.5,160,,160,,,,,,160,2,Raw,B
100,József Sztanke,M,1954,96.1,Hungary,M5,,,,,,155,167.5,175,,175,,,,,,175,1,Raw,B
100,Valery Tomilov,M,1965,96.7,Israel,M3,,,,,,160,-175,,,160,,,,,,160,2,Raw,B
100,Marijo Rukavina,M,1983,97.1,Croatia,O,,,,,,-205,-205,-205,,,,,,,,,DQ,Raw,B
100,David Kovalčík,M,1996,97.1,Czechia,T3,,,,,,160,175,-182.5,-193.5,175,,,,,,175,1,Raw,B
100,Alex Bak,M,1994,97.2,Hungary,J,,,,,,180,190,-197.5,,190,,,,,,190,4,Raw,B
100,Nikola Veličković,M,2001,97.6,Serbia,T1,,,,,,50,60,65,,65,,,,,,65,1,Raw,B
100,Tomislav Stefanovic,M,1970,98.1,Serbia,M2,,,,,,140,152.5,160,,160,,,,,,160,2,Raw,B
100,Marc Assirelli,M,1948,98.1,France,M6,,,,,,130,138.5,-140.5,-140.5,138.5,,,,,,138.5,1,Raw,B
100,Atte Poikonen,M,1982,98.2,Finland,O,,,,,,-230,-230,-230,,,,,,,,,DQ,Raw,B
100,Ákos Oláh,M,1989,98.5,Hungary,O,,,,,,207.5,217.5,-225,,217.5,,,,,,217.5,2,Raw,B
100,Šaban Saud,M,1976,98.9,Bosnia and Herzegovina,M1,,,,,,-210,-210,,,,,,,,,,DQ,Raw,B
100,Patrik Till,M,1997,99.1,Czechia,T3,,,,,,165,172.5,-177.5,,172.5,,,,,,172.5,2,Raw,B
100,Marko Trivković,M,1999,99.2,Bosnia and Herzegovina,T2,,,,,,110,120,-130,,120,,,,,,120,1,Raw,B
100,Vasiliy Fedyaev,M,1982,99.2,Russia,O,,,,,,240,247.5,-252.5,,247.5,,,,,,247.5,1,Raw,B
100,Joni Kivelä,M,1989,99.3,Finland,O,,,,,,185,187.5,-195,,187.5,,,,,,187.5,4,Raw,B
100,Tomáš Kríž,M,1992,99.5,Slovakia,J,,,,,,190,200.5,205,-213.5,205,,,,,,205,1,Raw,B
100,Igor Lebedev,M,1962,99.5,Russia,M3,,,,,,-200,200,206,207.5,206,,,,,,206,1,Raw,B
100,Peter Beime,M,1975,99.6,Hungary,M1,,,,,,170,175,-177.5,,175,,,,,,175,1,Raw,B
100,Dušan Jovanović,M,1992,99.8,Serbia,J,,,,,,185,192.5,-197.5,,192.5,,,,,,192.5,3,Raw,B
100,Miloš Vukicević,M,1995,99.8,Serbia,J,,,,,,180,-190,192.5,,192.5,,,,,,192.5,2,Raw,B
100,Steve Hampton,M,1969,99.9,New Zealand,M2,,,,,,150,160,-165,,160,,,,,,160,3,Raw,B
100,Robert Svanszar,M,1985,100,Slovakia,O,,,,,,-185,185,195,,195,,,,,,195,3,Raw,B
110,Mirosław Borkowski,M,1963,102.7,Poland,M3,,,,,,125,132.5,140,,140,,,,,,140,1,Raw,B
110,Christian Lucas,M,1956,103.4,France,M5,,,,,,-137.5,-137.5,,,,,,,,,,DQ,Raw,B
110,Gábor Katona,M,1991,103.5,Hungary,O,,,,,,-220,,,,,,,,,,,DQ,Raw,B
110,Artem Khrystin,M,1993,103.6,Ukraine,J,,,,,,145,155,-165,,155,,,,,,155,3,Raw,B
110,Aleksandr Klimovich,M,1975,104.7,Russia,M1,,,,,,-187.5,187.5,-192.5,,187.5,,,,,,187.5,2,Raw,B
110,Goran Tadić,M,1994,106.3,Croatia,J,,,,,,170,182.5,,,182.5,,,,,,182.5,2,Raw,B
110,Stefan Manasić,M,1993,107.5,Serbia,J,,,,,,200,210,217.5,,217.5,,,,,,217.5,1,Raw,B
110,Martin Chour,M,1984,107.6,Czechia,O,,,,,,-145,150,160,,160,,,,,,160,3,Raw,B
110,Tsvetan Velin,M,1988,108.1,Bulgaria,O,,,,,,-187.5,187.5,192.5,,192.5,,,,,,192.5,2,Raw,B
110,Moro Mahir,M,1981,108.4,Bosnia and Herzegovina,O,,,,,,215,225,-230,,225,,,,,,225,1,Raw,B
110,István Hegedüs,M,1967,108.5,Hungary,M2,,,,,,210,-222.5,222.5,,222.5,,,,,,222.5,1,Raw,B
110,Nikola Savic,M,1997,108.5,Serbia,T3,,,,,,170,180,-190,,180,,,,,,180,1,Raw,B
110,Iván Kozári,M,1976,108.7,Hungary,M1,,,,,,-187.5,192.5,200,,200,,,,,,200,1,Raw,B
110,Gennady Obermeister,M,1970,108.9,Israel,M2,,,,,,160,170,-180,,170,,,,,,170,3,Raw,B
110,Dominque Nussbaum,M,1971,109,France,M2,,,,,,190,200,205,,205,,,,,,205,2,Raw,B
125,Sergei Rudikov,M,1973,111.1,Israel,M1,,,,,,160,172.5,-185,,172.5,,,,,,172.5,4,Raw,B
125,Milan Pado,M,1972,111.6,Slovakia,M1,,,,,,-175,175,182.5,,182.5,,,,,,182.5,1,Raw,B
125,Vlastimil Kužel,M,1977,112.7,Czechia,O,,,,,,245,250,255,,255,,,,,,255,1,Raw,B
125,Mariks Daugavets,M,1971,113,Latvia,M2,,,,,,190,200,207.5,,207.5,,,,,,207.5,2,Raw,B
125,Alfredo Martin Rosas,M,1985,114.7,Argentina,O,,,,,,145,,,,145,,,,,,145,5,Raw,B
125,Zvonimir Gvoić,M,1972,115,Croatia,M1,,,,,,155,165,167.5,,167.5,,,,,,167.5,5,Raw,B
125,Dejan Ristić,M,1991,116.2,Serbia,O,,,,,,180,190,-197.5,,190,,,,,,190,3,Raw,B
125,Miroslav Vlačinić,M,1975,116.6,Croatia,M1,,,,,,160,172.5,177.5,,177.5,,,,,,177.5,3,Raw,B
125,Billy Haavisto,M,1965,117.2,Finland,M3,,,,,,185,195,-200,,195,,,,,,195,2,Raw,B
125,Daglan Holland,M,1965,118.6,UK,M3,,,,,,-190,-195,-205,,,,,,,,,DQ,Raw,B
125,Samir Ademović,M,1985,120.7,Bosnia and Herzegovina,O,,,,,,190,-197.5,-197.5,,190,,,,,,190,4,Raw,B
125,Krisztián Karosán,M,1994,121.7,Hungary,J,,,,,,-230,240,-242.5,,240,,,,,,240,1,Raw,B
125,Petre Parchev,M,1972,122.4,Bulgaria,M1,,,,,,180,-185,-187.5,,180,,,,,,180,2,Raw,B
125,Ivica Krstic,M,1961,123.6,Serbia,M3,,,,,,60,70,-80,,70,,,,,,70,3,Raw,B
125,Aleksei Tarasenko,M,1971,123.8,Russia,M2,,,,,,225,230,,,230,,,,,,230,1,Raw,B
125,Ján Oros,M,1964,123.9,Slovakia,M3,,,,,,-200,-200,205,215,205,,,,,,205,1,Raw,B
125,Irfan Muhić,M,1978,124.4,Bosnia and Herzegovina,O,,,,,,235,242.5,-250,,242.5,,,,,,242.5,2,Raw,B
140,Tamás Szabó,M,1971,126,Hungary,M2,,,,,,180,190,-202.5,,190,,,,,,190,1,Raw,B
140,Aleksandar Ilić,M,1992,127.6,Serbia,O,,,,,,180,190,,,190,,,,,,190,3,Raw,B
140,Zsolt Viktór Szabó,M,1976,134.4,Hungary,M1,,,,,,175,180,-185,,180,,,,,,180,1,Raw,B
140,Romuald Massé,M,1992,137.2,France,O,,,,,,220,230,240,,240,,,,,,240,1,Raw,B
140,Mirza Muratović,M,1981,139.8,Bosnia and Herzegovina,O,,,,,,200,-215,215,,215,,,,,,215,2,Raw,B
140+,Tim Agnew,M,1987,145.8,Canada,O,,,,,,122.5,145,-155,,145,,,,,,145,1,Raw,B
44,Irina Pomerantsev,F,1970,41.5,Israel,M2,,,,,,,,,,,90,100,-105,,100,100,1,Raw,D
48,Borka Blagojević,F,2001,47.3,Serbia,T1,,,,,,,,,,,-85,90,95,,95,95,1,Raw,D
48,Nevenka Crnogorčević,F,1969,47.5,Serbia,O,,,,,,,,,,,95,103.5,,,103.5,103.5,1,Raw,D
52,Ana Knežević,F,1997,51.5,Serbia,T3,,,,,,,,,,,90,-101,101,,101,101,1,Raw,D
56,Marta Seres,F,2003,52.5,Hungary,T1,,,,,,,,,,,65,75,80,-85,80,80,1,Raw,D
56,Elizabet Tomilov,F,2003,52.6,Israel,T1,,,,,,,,,,,60,65,75,,75,75,2,Raw,D
56,Tea Stojšić,F,1997,52.8,Croatia,T3,,,,,,,,,,,70,80,90,,90,90,1,Raw,D
56,Daniela Silva,F,1969,53,Argentina,M2,,,,,,,,,,,102.5,110,120,,120,120,1,Raw,D
56,Tereza Mlýnková,F,1993,53.1,Czechia,J,,,,,,,,,,,110,125,130,,130,130,2,Raw,D
56,Emilija Jovanović,F,1992,53.3,Serbia,O,,,,,,,,,,,110,120,-130,,120,120,2,Raw,D
56,Dragana Gojković,F,1970,53.3,Serbia,M2,,,,,,,,,,,75,77.5,80,,80,80,2,Raw,D
56,Bettina Razzouki-Korkis,F,1965,55.2,Poland,M3,,,,,,,,,,,100,110,115,,115,115,1,Raw,D
56,Mellissa Hurley,F,1977,55.7,UK,O,,,,,,,,,,,-120,130,-140,,130,130,1,Raw,D
56,Violetta Kolunova,F,1993,56,Latvia,J,,,,,,,,,,,120,130,137.5,,137.5,137.5,1,Raw,D
56,Miriama Jalčová,F,1992,56,Slovakia,J,,,,,,,,,,,100,112.5,-127.5,,112.5,112.5,3,Raw,D
60,Danijela Jakovljević,F,1990,56.7,Serbia,O,,,,,,,,,,,70,75,80,,80,80,2,Raw,D
60,Joanna Gawron,F,1993,57.3,Poland,J,,,,,,,,,,,120,130,-135,,130,130,1,Raw,D
60,Vanessa Torres,F,1986,58,Finland,O,,,,,,,,,,,-140,,,,,,DQ,Raw,D
60,Minna Paler,F,1968,58.7,Finland,M2,,,,,,,,,,,-110,112.5,120,,120,120,1,Raw,D
60,Ekaterina Galochka,F,1987,59.6,Russia,O,,,,,,,,,,,160,167.5,173,-175,173,173,1,Raw,D
67.5,Valerie Mirič,F,1993,60.6,Czechia,J,,,,,,,,,,,-150,160,-170,,160,160,1,Raw,D
67.5,Sonja Vidojković,F,1997,64,Serbia,T3,,,,,,,,,,,70,-80,80,,80,80,1,Raw,D
67.5,Amela Fekovic,F,1991,64.1,Montenegro,O,,,,,,,,,,,120,-130,130,,130,130,1,Raw,D
67.5,Bernadett Fekete,F,1993,65.3,Hungary,J,,,,,,,,,,,125,-132.5,,,125,125,2,Raw,D
75,Jelena Markinkovic,F,1983,69,Serbia,O,,,,,,,,,,,110,125,132.5,,132.5,132.5,1,Raw,D
75,Aida Agüero,F,1961,70.9,Argentina,M4,,,,,,,,,,,180,190,,,190,190,1,Raw,D
75,Renata Zapała,F,1994,73.2,Poland,J,,,,,,,,,,,125,-135,140,-142.5,140,140,1,Raw,D
75,Veronika Rulíková,F,1997,74.2,Czechia,T3,,,,,,,,,,,120,130,142.5,,142.5,142.5,1,Raw,D
82.5,Leticia Bertotto,F,1971,81.8,Argentina,M2,,,,,,,,,,,195,205,-215,,205,205,1,Raw,D
90,Minna Pajulahti,F,1981,84.7,Finland,O,,,,,,,,,,,155,180,,,180,180,2,Raw,D
90,Mariela Ortellado,F,1985,85.9,Argentina,O,,,,,,,,,,,195,210,220,,220,220,1,Raw,D
110,Andreja Valant,F,1980,91,Slovenia,O,,,,,,,,,,,152.5,157.5,160,,160,160,1,Raw,D
56,István László Vereb,M,2002,53.9,Hungary,T1,,,,,,,,,,,70,80,90,100,90,90,1,Raw,D
56,Pavel Balážik,M,1979,54.1,Slovakia,O,,,,,,,,,,,130,,,,130,130,2,Raw,D
56,Daniel Pianka,M,1977,55.4,Czechia,O,,,,,,,,,,,175,185,190,,190,190,1,Raw,D
56,Aleksandr Romanichev,M,1963,55.9,Israel,M3,,,,,,,,,,,162.5,175,180,,180,180,1,Raw,D
60,Jan Pianka,M,1977,56.9,Czechia,O,,,,,,,,,,,170,180,195,,195,195,1,Raw,D
67.5,Lazar Manic,M,1991,60.6,Serbia,O,,,,,,,,,,,170,180,190,,190,190,3,Raw,D
67.5,Ernest Ruzin,M,1937,62.3,Israel,M8,,,,,,,,,,,160,165,,,165,165,1,Raw,D
67.5,Hristijan Strainović,M,1983,66.2,Serbia,O,,,,,,,,,,,200,220,-222.5,,220,220,2,Raw,D
67.5,Márton Munkácsi,M,2002,66.6,Hungary,T1,,,,,,,,,,,120,130,135,140,135,135,1,Raw,D
67.5,Rastko Jovičić,M,1995,66.7,Croatia,J,,,,,,,,,,,150,160,170,,170,170,2,Raw,D
67.5,Ivan Ivanov,M,1994,66.8,Bulgaria,J,,,,,,,,,,,170,180,190,,190,190,1,Raw,D
67.5,Mishel Velichkov,M,1991,67.2,Bulgaria,O,,,,,,,,,,,210,237.5,245,,245,245,1,Raw,D
67.5,Alexey Okunev,M,1975,67.3,Russia,M1,,,,,,,,,,,250,260,-270,,260,260,1,Raw,D
67.5,Nermin Hasanbegović,M,1987,67.5,Bosnia and Herzegovina,O,,,,,,,,,,,180,190,-200,,190,190,4,Raw,D
75,Matthew Csiszar,M,2000,69.9,UK,T1,,,,,,,,,,,150,-170,175,,175,175,1,Raw,D
75,Guylhem Feraud,M,1945,72.2,France,M7,,,,,,,,,,,165,171,,,171,171,1,Raw,D
75,Emmanuel Poulain,M,1979,72.5,France,O,,,,,,,,,,,175,-185,185,,185,185,2,Raw,D
75,Sejfo Šehović,M,1959,72.6,Bosnia and Herzegovina,M4,,,,,,,,,,,200,220,-231,,220,220,1,Raw,D
75,Željko Krasulja,M,1973,72.8,Croatia,M1,,,,,,,,,,,-110,110,120,,120,120,1,Raw,D
75,Milan Grozdanović,M,1989,73.9,Serbia,O,,,,,,,,,,,220,-237.5,,,220,220,1,Raw,D
75,Sanel Čičić,M,1993,74.8,Serbia,J,,,,,,,,,,,170,185,,,185,185,1,Raw,D
82.5,Ivan Jovanovic,M,2001,76.4,Serbia,T1,,,,,,,,,,,130,140,150,,150,150,1,Raw,D
82.5,Danilo Andjelkovic,M,1997,76.4,Serbia,T3,,,,,,,,,,,205,220,-225,,220,220,1,Raw,D
82.5,Laszlo Komaromi,M,2002,76.7,Hungary,T1,,,,,,,,,,,95,105,115,,115,115,2,Raw,D
82.5,Tomislav Pope,M,1995,80.7,Croatia,J,,,,,,,,,,,-210,225,235,,235,235,2,Raw,D
82.5,Bill Healy,M,1950,81,Ireland,M6,,,,,,,,,,,225,235,242.5,,242.5,242.5,1,Raw,D
82.5,Marcelo Lobo,M,1968,81,Argentina,M2,,,,,,,,,,,230,240,250,,250,250,1,Raw,D
82.5,Blagoje Tesić,M,1994,81.4,Serbia,J,,,,,,,,,,,220,235,245,-256,245,245,1,Raw,D
82.5,Nikola Reljić,M,1988,81.6,Serbia,O,,,,,,,,,,,200,230,,,230,230,2,Raw,D
82.5,Jaroslav Tomanec,M,1943,82.1,Czechia,M7,,,,,,,,,,,150,155,160,,160,160,1,Raw,D
82.5,Matěj Syrovátka,M,1998,82.1,Czechia,T2,,,,,,,,,,,240,250,261,,261,261,1,Raw,D
82.5,Ben Kelly,M,1980,82.3,Ireland,O,,,,,,,,,,,245,252.5,257.5,,257.5,257.5,1,Raw,D
82.5,László Eck,M,1978,82.4,Hungary,O,,,,,,,,,,,215,225,230,,230,230,3,Raw,D
82.5,Alexandre Saingery,M,1988,82.5,France,O,,,,,,,,,,,215,-230,230,,230,230,4,Raw,D
82.5,Csaba Simon,M,1968,82.5,Hungary,M2,,,,,,,,,,,232.5,242.5,,,242.5,242.5,2,Raw,D
90,Mihály Bakó,M,1974,84.5,Hungary,M1,,,,,,,,,,,200,215,,,215,215,1,Raw,D
90,Lee Powell,M,1984,86,Canada,O,,,,,,,,,,,270,280,-297.5,,280,280,2,Raw,D
90,Peter Herák,M,1960,86.8,Slovakia,M4,,,,,,,,,,,215,-230,-230,,215,215,1,Raw,D
90,Milan Stanković,M,1995,87.3,Serbia,J,,,,,,,,,,,-300,300,320,-330,320,320,1,Raw,D
90,Ernő Eck,M,1994,88.6,Hungary,J,,,,,,,,,,,200,210,225,,225,225,3,Raw,D
90,Benjamin Mező Áron,M,1996,88.6,Hungary,T3,,,,,,,,,,,217.5,230,-235,,230,230,1,Raw,D
90,Silvestar Penkov,M,1983,88.6,Bulgaria,O,,,,,,,,,,,257.5,265,275,,275,275,3,Raw,D
90,Vladimir Hristov,M,1983,88.7,Bulgaria,O,,,,,,,,,,,270,285,300,,300,300,1,Raw,D
90,Haris Canović,M,1990,88.9,Montenegro,O,,,,,,,,,,,-250,255,267.5,,267.5,267.5,5,Raw,D
90,Stefan Sochaňski,M,1948,89.8,Poland,M6,,,,,,,,,,,187.5,210,,,210,210,1,Raw,D
90,Rodrigo Sanchez,M,1970,89.9,Argentina,M2,,,,,,,,,,,200,240,250,,250,250,1,Raw,D
90,Lukáš Tomášov,M,1997,89.9,Czechia,T3,,,,,,,,,,,220,-235,-235,,220,220,2,Raw,D
90,János Fazekas,M,1987,90,Hungary,O,,,,,,,,,,,265,275,-282.5,,275,275,4,Raw,D
90,Lukáš Petrůj,M,1994,90,Czechia,J,,,,,,,,,,,260,275,285,,285,285,2,Raw,D
100,Bojan Tanasković,M,1997,90.9,Serbia,T3,,,,,,,,,,,240,251,,,251,251,1,Raw,D
100,Radomir Jovanović,M,1943,94.6,Serbia,M7,,,,,,,,,,,-100,105,,,105,105,1,Raw,D
100,Stephane Bouton,M,1972,95.4,France,M1,,,,,,,,,,,185,200,215,,215,215,1,Raw,D
100,Valery Tomilov,M,1965,96.7,Israel,M3,,,,,,,,,,,225,-240,,,225,225,1,Raw,D
100,Grigor Penchev,M,1993,96.9,Bulgaria,J,,,,,,,,,,,-230,230,250,,250,250,2,Raw,D
100,Šaban Saud,M,1976,98.9,Bosnia and Herzegovina,M1,,,,,,,,,,,-250,,,,,,DQ,Raw,D
100,Marko Trivković,M,1999,99.2,Bosnia and Herzegovina,T2,,,,,,,,,,,200,220,-236,,220,220,1,Raw,D
100,Joni Kivelä,M,1989,99.3,Finland,O,,,,,,,,,,,-280,280,-300,,280,280,2,Raw,D
100,Dušan Jovanović,M,1992,99.8,Serbia,J,,,,,,,,,,,300,315,-328.5,,315,315,1,Raw,D
100,Mikko Korpeinen,M,1980,100,Finland,O,,,,,,,,,,,-300,300,-310,,300,300,1,Raw,D
110,Szabolcs Balázs,M,1988,101.2,Hungary,O,,,,,,,,,,,-300,300,,,300,300,1,Raw,D
110,Ondřej Kratochvíl,M,1985,102.7,Czechia,O,,,,,,,,,,,240,265,-285,,265,265,3,Raw,D
110,Gustavo Alberto Mino,M,1971,105.9,Argentina,M2,,,,,,,,,,,200,,,,200,200,1,Raw,D
110,Goran Tadić,M,1994,106.3,Croatia,J,,,,,,,,,,,260,270,280,,280,280,2,Raw,D
110,Željimir Korolija,M,1963,106.8,Croatia,M3,,,,,,,,,,,220,-230,-230,,220,220,1,Raw,D
110,Martin Chour,M,1984,107.6,Czechia,O,,,,,,,,,,,265,275,-285,,275,275,2,Raw,D
110,Zsolt Antal,M,1975,108,Hungary,M1,,,,,,,,,,,270,280,292.5,,292.5,292.5,1,Raw,D
110,Erik Jaškanič,M,1992,108.2,Slovakia,J,,,,,,,,,,,345,360,-370,,360,360,1,Raw,D
110,Zoltán Borbíró,M,1995,108.6,Hungary,J,,,,,,,,,,,-300,-300,-300,,,,DQ,Raw,D
125,Sergei Rudicov,M,1973,111.1,Israel,M1,,,,,,,,,,,225,-240,,,225,225,3,Raw,D
125,Ľubomír Trstenský,M,1974,111.3,Slovakia,M1,,,,,,,,,,,245,255,-265,,255,255,2,Raw,D
125,Stoyan Andreev,M,1978,112.9,Bulgaria,O,,,,,,,,,,,351,360,-370,,360,360,1,Raw,D
125,Dino Hunjet,M,1996,114.1,Croatia,J,,,,,,,,,,,260,280,290,,290,290,1,Raw,D
125,Alfredo Martin Rosas,M,1985,114.7,Argentina,O,,,,,,,,,,,-300,-300,,,,,DQ,Raw,D
125,Tibor Szántó,M,1976,114.8,Hungary,M1,,,,,,,,,,,250,265,272.5,,272.5,272.5,1,Raw,D
125,Nikola Lazović,M,1982,115.7,Montenegro,O,,,,,,,,,,,290,300,310,,310,310,2,Raw,D
125,Billy Haavisto,M,1965,117.2,Finland,M3,,,,,,,,,,,250,270,-282.5,,270,270,1,Raw,D
125,Samir Ademović,M,1985,120.7,Bosnia and Herzegovina,O,,,,,,,,,,,280,-290,,,280,280,3,Raw,D
125,Eric Bar,M,1969,123.5,France,M2,,,,,,,,,,,220,240,-260,,240,240,1,Raw,D
140,Robert Nemś,M,1969,125.6,Poland,M2,,,,,,,,,,,270,280,300,,300,300,1,Raw,D
140,Ferenc Szenti,M,1978,125.8,Hungary,O,,,,,,,,,,,-265,270,282.5,,282.5,282.5,2,Raw,D
140,Ščefan Čelovski,M,1998,127.2,Croatia,T3,,,,,,,,,,,-180,-180,-180,,,,DQ,Raw,D
140,Aleksandar Stanković,M,1982,133,Serbia,O,,,,,,,,,,,300,325,350,,350,350,1,Raw,D
140,Zsolt Viktór Szabó,M,1976,134.4,Hungary,M1,,,,,,,,,,,280,290,300,,300,300,1,Raw,D
140+,Robert Rapacz,M,1982,147.1,Poland,O,,,,,,,,,,,280,-300,-300,,280,280,3,Raw,D
140+,Šehic Sahludin,M,1978,148.3,Bosnia and Herzegovina,O,,,,,,,,,,,290,305,320,,320,320,1,Raw,D
140+,Antti Jumisko,M,1983,152.6,Finland,O,,,,,,,,,,,280,300,307.5,,307.5,307.5,2,Raw,D
56,Dragana Gojković,F,1970,53.4,Serbia,M2,,,,,,35,37.5,-40,,37.5,,,,,,37.5,1,Multi-ply,B
56,Danijela Jakovljević,F,1990,55.1,Serbia,O,,,,,,40,45,47.5,,47.5,,,,,,47.5,1,Multi-ply,B
60,Rehana Maniar,F,1975,59.4,Ireland,M1,,,,,,50,55,,,55,,,,,,55,1,Multi-ply,B
67.5,Sonia Vidojković,F,1997,64.1,Serbia,T3,,,,,,-42.5,42.5,,,42.5,,,,,,42.5,1,Multi-ply,B
67.5,Jelena Marinković,F,1983,65.5,Serbia,O,,,,,,80,85,,,85,,,,,,85,1,Multi-ply,B
75,Aida Agüero,F,1961,70.8,Argentina,M4,,,,,,130,-140,140,,140,,,,,,140,1,Multi-ply,B
82.5,Gisela Witte,F,1958,77.6,Germany,M4,,,,,,60,70,,,70,,,,,,70,1,Multi-ply,B
67.5,Boyan Stoyanov,M,1986,62.2,Bulgaria,O,,,,,,100,107.5,-120,,107.5,,,,,,107.5,2,Multi-ply,B
67.5,Gary Bobrovitz,M,1952,65,Canada,M5,,,,,,-147.5,-147.5,,,,,,,,,,DQ,Multi-ply,B
67.5,Hristijan Strainović,M,1983,66,Serbia,O,,,,,,105,-115,117.5,,117.5,,,,,,117.5,1,Multi-ply,B
75,István Gyuricska Jr,M,2000,67.7,Hungary,T1,,,,,,-140,-140,-140,,,,,,,,,DQ,Multi-ply,B
75,Stefan Dinić,M,1989,72.5,Serbia,O,,,,,,80,90,-95,,90,,,,,,90,2,Multi-ply,B
75,Joannis Sulime,M,1951,73,France,M6,,,,,,125,130,-132.5,,130,,,,,,130,1,Multi-ply,B
75,Ivaylo Bosev,M,1987,73.3,Bulgaria,O,,,,,,190,202.5,210,,210,,,,,,210,1,Multi-ply,B
75,Aleksandar Tošić,M,1994,74.2,Serbia,J,,,,,,95,100,105,,105,,,,,,105,1,Multi-ply,B
75,Saša Antić,M,1972,74.2,Serbia,M1,,,,,,130,150,-160,,150,,,,,,150,1,Multi-ply,B
82.5,László Jobbágy,M,1947,79.7,Hungary,M6,,,,,,150,155.5,,,155.5,,,,,,155.5,1,Multi-ply,B
82.5,Vladimir Nazarov,M,1982,80.9,Ireland,O,,,,,,-187.5,192.5,200,,200,,,,,,200,2,Multi-ply,B
82.5,István Gyuricska Jr,M,1967,81.4,Hungary,M2,,,,,,-200,200,210,,210,,,,,,210,1,Multi-ply,B
82.5,Ján Matej,M,1985,81.5,Slovakia,O,,,,,,240,252.5,-260,,252.5,,,,,,252.5,1,Multi-ply,B
82.5,Alex Papír,M,1945,81.7,Israel,M7,,,,,,-130,130,142.5,,142.5,,,,,,142.5,1,Multi-ply,B
90,Bojan Stanojlović,M,1993,83.9,Serbia,J,,,,,,130,160,-180,,160,,,,,,160,1,Multi-ply,B
90,Luc Grandjean,M,1966,84,France,M3,,,,,,-150,150,-155,,150,,,,,,150,2,Multi-ply,B
90,Dalibor Ilijić,M,1978,84.6,Serbia,O,,,,,,-230,230,-240,,230,,,,,,230,1,Multi-ply,B
90,Benjamin Mező Áron,M,1996,88.7,Hungary,T3,,,,,,140,150,-162.5,,150,,,,,,150,1,Multi-ply,B
90,Milan Lasica,M,1981,88.8,Serbia,O,,,,,,-200,-202.5,-202.5,,,,,,,,,DQ,Multi-ply,B
90,Milija Antić,M,1970,88.8,Serbia,M2,,,,,,120,170,-180,,170,,,,,,170,1,Multi-ply,B
90,Blagoje Baosic,M,1978,89,Montenegro,O,,,,,,195,-202.5,-205,,195,,,,,,195,2,Multi-ply,B
90,Michail Červinka,M,1960,89.3,Slovakia,M4,,,,,,130,-137.5,-137.5,,130,,,,,,130,1,Multi-ply,B
90,Aleksandar Radisavljević,M,1996,89.8,Serbia,J,,,,,,90,100,105,,105,,,,,,105,2,Multi-ply,B
90,Valery Tomilov,M,1965,89.9,Israel,M3,,,,,,230,235,-250,,235,,,,,,235,1,Multi-ply,B
100,David Kovalčík,M,1996,93.1,Czechia,T3,,,,,,190,-205,-210,,190,,,,,,190,1,Multi-ply,B
100,Ján Matej,M,1947,93.6,Slovakia,M6,,,,,,150,157.5,-160,,157.5,,,,,,157.5,1,Multi-ply,B
100,Franciszek Szabluk,M,1956,94.5,Poland,M5,,,,,,195,-215,-215,,195,,,,,,195,1,Multi-ply,B
100,Amar Kalač,M,1990,95.4,Serbia,O,,,,,,-215,215,-222.5,,215,,,,,,215,3,Multi-ply,B
100,Binyamin Abramov,M,1964,95.7,Israel,M3,,,,,,210,-220,220,,220,,,,,,220,1,Multi-ply,B
100,Steve Hampton,M,1969,97.6,New Zealand,M2,,,,,,170,180,185,,185,,,,,,185,1,Multi-ply,B
100,Aleksas Alekna,M,1971,98.7,Latvia,M1,,,,,,187.5,195,-202.5,,195,,,,,,195,1,Multi-ply,B
100,Tomáš Kríž,M,1992,99,Slovakia,J,,,,,,265,-275,-275,,265,,,,,,265,1,Multi-ply,B
100,Evgenii Gornostaev,M,1979,99.2,Russia,O,,,,,,205,220,225,,225,,,,,,225,1,Multi-ply,B
100,Dmitry Bubyr,M,1981,100,Russia,O,,,,,,200,207.5,222.5,,222.5,,,,,,222.5,2,Multi-ply,B
110,Eduard Krugliak,M,1977,103.1,Israel,O,,,,,,-260,-260,260,,260,,,,,,260,2,Multi-ply,B
110,Miloš Ćećanović,M,1978,105.4,Montenegro,O,,,,,,-245,245,-257.5,,245,,,,,,245,3,Multi-ply,B
110,Aleksander Pelovski,M,1991,106.4,Bulgaria,O,,,,,,-240,245,-255,,245,,,,,,245,4,Multi-ply,B
110,Gennady Obermeister,M,1970,108.1,Israel,M2,,,,,,-260,260,280,,280,,,,,,280,1,Multi-ply,B
110,Maksims Selickis,M,1980,108.4,Latvia,O,,,,,,305,322.5,-330,,322.5,,,,,,322.5,1,Multi-ply,B
125,Ján Velgos,M,2001,118.6,Slovakia,T1,,,,,,250,260,270,,270,,,,,,270,1,Multi-ply,B
125,Nenad Stojanović,M,1982,121,Serbia,O,,,,,,180,,,,180,,,,,,180,2,Multi-ply,B
125,Evlogi Georgiev,M,1984,123,Bulgaria,O,,,,,,272.5,285,290,,290,,,,,,290,1,Multi-ply,B
125,Saša Mašanović,M,1967,123.8,Montenegro,M2,,,,,,-210,210,222.5,,222.5,,,,,,222.5,1,Multi-ply,B
125,Jani Ihalainen,M,1975,124.2,Finland,M1,,,,,,155,,,,155,,,,,,155,1,Multi-ply,B
140,Oscars Zvarts,M,1978,131.5,Latvia,O,,,,,,245,255,265,,265,,,,,,265,1,Multi-ply,B
140,Nikola Piruze,M,1994,136.7,Macedonia,J,,,,,,280,-290,-297.5,,280,,,,,,280,1,Multi-ply,B
140+,Antti Jumisko,M,1980,156.3,Finland,O,,,,,,150,,,,150,,,,,,150,1,Multi-ply,B
52,Danijela Jakovljević,F,1990,51.1,Serbia,O,,,,,,,,,,,80,85,100,,100,100,1,Multi-ply,D
56,Dragana Gojković,F,1970,53.4,Serbia,M2,,,,,,,,,,,70,72.5,75,77.5,75,75,1,Multi-ply,D
60,Rehana Maniar,F,1975,59.4,Ireland,M1,,,,,,,,,,,110,120,,,120,120,1,Multi-ply,D
67.5,Radostina Lulova,F,1993,62.8,Bulgaria,J,,,,,,,,,,,165,175,185,,185,185,1,Multi-ply,D
67.5,Sonja Vidojković,F,1997,64.1,Serbia,T3,,,,,,,,,,,80,85,100,,100,100,1,Multi-ply,D
67.5,Jelena Marinković,F,1983,66,Serbia,O,,,,,,,,,,,130,135,140,,140,140,1,Multi-ply,D
75,Iuliia Pilipchatina,F,1984,72.5,Russia,O,,,,,,,,,,,140,155,170.5,,170.5,170.5,1,Multi-ply,D
56,Daniel Pianka,M,1977,55.2,Czechia,O,,,,,,,,,,,190,205,-215,,205,205,1,Multi-ply,D
56,Aleksandr Romanichev,M,1963,55.4,Israel,M3,,,,,,,,,,,190,205,215,,215,215,1,Multi-ply,D
60,Jan Pianka,M,1977,56.7,Czechia,O,,,,,,,,,,,190,-205,210,,210,210,1,Multi-ply,D
67.5,Boyan Stoyanov,M,1986,62.2,Bulgaria,O,,,,,,,,,,,130,,,,130,130,2,Multi-ply,D
67.5,Hristijan Strainović,M,1983,66,Serbia,O,,,,,,,,,,,200,215,-230,230,215,215,1,Multi-ply,D
75,Stefan Dinić,M,1989,72.3,Serbia,O,,,,,,,,,,,190,205,210,,210,210,2,Multi-ply,D
75,Milan Grozdanović,M,1989,72.9,Serbia,O,,,,,,,,,,,-250,251.5,261,-270,261,261,1,Multi-ply,D
75,Aleksandar Tošić,M,1994,74.2,Serbia,J,,,,,,,,,,,120,140,170,,170,170,1,Multi-ply,D
82.5,Alex Papír,M,1945,81.7,Israel,M7,,,,,,,,,,,167.5,175,-180,,175,175,1,Multi-ply,D
82.5,Ladislau Kiss,M,1948,81.9,Hungary,M6,,,,,,,,,,,210,220,230,,230,230,1,Multi-ply,D
90,László Eck,M,1978,84.4,Hungary,O,,,,,,,,,,,230,240,245,,245,245,2,Multi-ply,D
90,Simon Csaba,M,1968,84.5,Hungary,M2,,,,,,,,,,,220,240,250,,250,250,1,Multi-ply,D
90,Benjamin Mező Áron,M,1996,88.7,Hungary,T3,,,,,,,,,,,-220,,,,,,DQ,Multi-ply,D
90,Milija Antić,M,1970,88.8,Serbia,M2,,,,,,,,,,,150,200,,,200,200,2,Multi-ply,D
90,Stefan Sochaňski,M,1948,89.1,Poland,M6,,,,,,,,,,,205,-230,230,,230,230,1,Multi-ply,D
90,Michael Červinka,M,1960,89.3,Slovakia,M4,,,,,,,,,,,180,-195,-195,,180,180,1,Multi-ply,D
90,Vladimir Zhabin,M,1980,89.7,Russia,O,,,,,,,,,,,347.5,-360,-360,,347.5,347.5,1,Multi-ply,D
90,Aleksandar Radisavljević,M,1996,89.8,Serbia,J,,,,,,,,,,,-170,180,200,,200,200,1,Multi-ply,D
90,Valery Tomilov,M,1965,89.9,Israel,M3,,,,,,,,,,,250,-270,-270,,250,250,1,Multi-ply,D
100,Ernő Eck,M,1994,91.7,Hungary,J,,,,,,,,,,,225,240,-250,,240,240,1,Multi-ply,D
100,Yuriy Ustinov,M,1975,98.3,Russia,M1,,,,,,,,,,,220,250,-260,,250,250,2,Multi-ply,D
100,David Thomas,M,1951,98.4,UK,M6,,,,,,,,,,,145,160,170,,170,170,1,Multi-ply,D
100,Tamás Molnár,M,1975,99,Hungary,M1,,,,,,,,,,,300,310,315,,315,315,1,Multi-ply,D
100,Veselin Doychev,M,1985,99,Bulgaria,O,,,,,,,,,,,320,-342.5,-342.5,,320,320,1,Multi-ply,D
110,Ondrej Kratochwil,M,1985,102.7,Czechia,O,,,,,,,,,,,-260,260,-290,,260,260,1,Multi-ply,D
110,Ken Trommel,M,1969,105.5,Canada,M2,,,,,,,,,,,252.5,275,-300,,275,275,1,Multi-ply,D
125,Hristo Muskov,M,1985,121,Bulgaria,O,,,,,,,,,,,310,-330,,,310,310,1,Multi-ply,D
125,Jani Ihalainen,M,1975,124.2,Finland,M1,,,,,,,,,,,190,200,,,200,200,1,Multi-ply,D
140+,Antti Jumisko,M,1980,156.3,Finland,O,,,,,,,,,,,310,325,340,355,340,340,1,Multi-ply,D
56,Dragana Gojković,F,1970,53.7,Serbia,M2,-50,50,55,,55,35,37.5,40,,40,75,77.5,80,,80,175,1,Multi-ply,SBD
56,Danijela Jakovljević,F,1990,55.6,Serbia,O,-105,-105,-115,,,,,,,,,,,,,,DQ,Multi-ply,SBD
67.5,Sonja Vidojković,F,1997,64.1,Serbia,T3,-90,90,-105,,90,40,-42.5,-42.5,,40,90,100,-110,,100,230,1,Multi-ply,SBD
67.5,Jelena Marinković,F,1983,65.2,Serbia,O,-110,110,125,,125,-80,-81,81,,81,120,130,-142.5,,130,336,1,Multi-ply,SBD
56,Aleksandr Romanichev,M,1963,55.5,Israel,M3,180,190,200,,200,-110,-110,110,,110,190,205,-210,,205,515,1,Multi-ply,SBD
67.5,Jonathan Bar,M,1996,61.5,France,J,145,152.5,157.5,,157.5,87.5,92.5,97.5,,97.5,170,180,187.5,,187.5,442.5,1,Multi-ply,SBD
67.5,Boyan Stoyanov,M,1986,62.9,Bulgaria,O,140,160,182.5,,182.5,100,110,-112.5,,110,140,170,-200,,170,462.5,1,Multi-ply,SBD
67.5,Gary Bobrovitz,M,1952,67.2,Canada,M5,60,,,,60,142.5,-145,-145,-145,142.5,60,,,,60,262.5,1,Multi-ply,SBD
75,Marko Sivački,M,1979,73.3,Serbia,O,210,-220,220,,220,135,-140,140,,140,200,210,220,,220,580,2,Multi-ply,SBD
75,Aleksandar Tošić,M,1994,74.5,Serbia,J,100,-120,,,100,50,85,,,85,120,140,160,,160,345,1,Multi-ply,SBD
75,Oļegs Šaruks,M,1983,74.8,Latvia,O,250,280,300,,300,225,236,-242.5,,236,200,230,-245,,230,766,1,Multi-ply,SBD
82.5,Gerard Dufour,M,1949,77.3,France,M6,150,-170,170,,170,100,110,117.5,,117.5,160,190,-212.5,,190,477.5,1,Multi-ply,SBD
82.5,András Csiszár,M,1973,81.8,Hungary,M1,260,280,300,,300,160,175,185,,185,250,280,295,,295,780,1,Multi-ply,SBD
82.5,Lee Powell,M,1984,82,Canada,O,265,-285,285,,285,175,-185,-192.5,,175,265,285,292.5,,292.5,752.5,1,Multi-ply,SBD
82.5,István Gyuricska Jr,M,1967,82.5,Hungary,M2,,-160,170,,170,190,-200,,,190,180,190,200,,200,560,1,Multi-ply,SBD
90,Aleksandar Radisavljević,M,1996,89.4,Serbia,J,-230,-230,230,,230,90,-100,-105,,90,180,-200,200,,200,520,1,Multi-ply,SBD
90,Stefan Sochaňski,M,1948,89.6,Poland,M6,215,235,247.5,,247.5,117.5,-127.5,127.5,,127.5,217.5,240,,,240,615,1,Multi-ply,SBD
100,Filip Pilný,M,1998,93.1,Czechia,T3,220,-240,-240,,220,120,-135,-135,,120,180,195,-210,,195,535,1,Multi-ply,SBD
100,Valery Tomilov,M,1965,96.9,Israel,M3,300,310,,,310,230,245,,,245,250,262.5,,,262.5,817.5,1,Multi-ply,SBD
100,Brian Johnston,M,1964,98.1,Canada,M3,-310,-310,310,,310,180,-200,-217.5,,180,225,250,,,250,740,2,Multi-ply,SBD
100,Libor Hurdálek,M,1954,99.6,Czechia,M5,-220,220,-250,,220,150,-160,-160,,150,200,215,225,,225,595,1,Multi-ply,SBD
125,Lee Marshall,M,1959,117.8,UK,M4,350,-360,360,-370,360,-180,180,,,180,300,310,,,310,850,1,Multi-ply,SBD
125,Ján Velgos,M,2001,121.7,Slovakia,T1,270,290,305,,305,250,260,270,,270,210,230,-240,,230,805,1,Multi-ply,SBD
125,Eric Bar,M,1969,124.1,France,M2,230,-245,245,,245,185,195,205,,205,-245,-245,245,,245,695,1,Multi-ply,SBD
140,Gary Boulton,M,1964,133.2,UK,M3,345,-365,,,345,245,255,262.5,272.5,262.5,260,300,311,,311,918.5,1,Multi-ply,SBD
140,Brian Bailey,M,1970,136.1,Canada,M2,405,-438,-438,,405,297.5,-323,-323,,297.5,247.5,-270,-270,,247.5,950,1,Multi-ply,SBD
48,Slavica Đelić,F,1966,44.9,Serbia,M3,,,,,,-25,25,30,,30,,,,,,30,1,Raw,B
67.5,Marija Vasić,F,1988,66.4,Serbia,O,,,,,,-40,40,-50,,40,,,,,,40,1,Raw,B
82.5,Vesna Nikić,F,1962,78,Serbia,M3,,,,,,52.5,57.5,-60,,57.5,,,,,,57.5,1,Raw,B
75,Oliver Spasić,M,1976,70.8,Serbia,M1,,,,,,45,50,-60,,50,,,,,,50,1,Raw,B
75,Miloš Simonović,M,1995,71.6,Serbia,J,,,,,,125,130,141,,141,,,,,,141,1,Raw,B
75,Nikola Radojičić,M,1991,73.3,Serbia,O,,,,,,70,-75,80,,80,,,,,,80,2,Raw,B
75,Aleksander Kepeš,M,1985,75,Serbia,O,,,,,,80,85,-90,,85,,,,,,85,1,Raw,B
82.5,Milorad Senković,M,1976,81.5,Serbia,O,,,,,,180,186,-190,,186,,,,,,186,1,Raw,B
82.5,Filip Jovanović,M,1997,81.9,Serbia,T3,,,,,,85,90,-100,,90,,,,,,90,1,Raw,B
90,Željko Sebić,M,1970,83.2,Serbia,M2,,,,,,-120,-120,-120,,,,,,,,,DQ,Raw,B
90,Nemanja Ćurić,M,1985,83.2,Serbia,O,,,,,,60,65,-75,,65,,,,,,65,2,Raw,B
100,Nebojša Čukić,M,1985,92.8,Serbia,O,,,,,,60,70,-80,,70,,,,,,70,1,Raw,B
100,Slobodan Vasić,M,1997,95,Serbia,T3,,,,,,90,95,100,,100,,,,,,100,1,Raw,B
100,Srđan Ristić,M,1980,91.4,Serbia,O,,,,,,52.5,60,65,,65,,,,,,65,1,Raw,B
110,Dalibor Milutinović,M,1978,104.7,Serbia,O,,,,,,65,70,-75,,70,,,,,,70,1,Raw,B
