Division,WeightClassKg,Place,Name,Team,BodyweightKg,Best3SquatKg,Best3BenchKg,Best3DeadliftKg,TotalKg,Equipment,Event,Sex
Boys,55.79,1,Jalen Williams,Tyler Chapel Hill,53.07,124.74,68.04,140.61,333.39,Single-ply,SBD,M
Boys,59.87,1,Cade Zmolik,Ennis,59.42,147.42,90.72,145.15,383.29,Single-ply,SBD,M
Boys,67.13,1,Markedray Hollins,Tyler Chapel Hill,62.14,136.08,68.04,151.95,356.07,Single-ply,SBD,M
Boys,67.13,2,Daylon Johnson,Corsicana,62.6,83.91,56.7,115.67,256.28,Single-ply,SBD,M
Boys,67.13,3,Michael Miller,Corsicana,63.96,86.18,47.63,95.25,229.06,Single-ply,SBD,M
Boys,74.84,1,Keandre Goss,Tyler Chapel Hill,72.12,222.26,111.13,238.14,571.53,Single-ply,SBD,M
Boys,74.84,2,Dustin Vasquez,Ennis,72.57,174.63,90.72,181.44,446.79,Single-ply,SBD,M
Boys,74.84,3,Tyrail Hart,Tyler Chapel Hill,74.39,183.7,86.18,172.37,442.25,Single-ply,SBD,M
Boys,74.84,4,Chris Johnson,Corsicana,69.4,156.49,88.45,163.29,408.23,Single-ply,SBD,M
Boys,74.84,5,D Dean,Tyler Chapel Hill,72.57,136.08,74.84,147.42,358.34,Single-ply,SBD,M
Boys,82.1,1,Cody Evans,Corsicana,79.38,226.8,117.93,235.87,580.6,Single-ply,SBD,M
Boys,82.1,2,Brandon Evans,Corsicana,80.74,208.65,122.47,219.99,551.11,Single-ply,SBD,M
Boys,82.1,3,Brandon Bell,Tyler Chapel Hill,81.19,197.31,113.4,185.97,496.68,Single-ply,SBD,M
Boys,82.1,4,Boston Prachyl,Ennis,81.65,181.44,113.4,190.51,485.34,Single-ply,SBD,M
Boys,82.1,5,Lairamie Lee,Tyler Chapel Hill,77.56,190.51,111.13,181.44,483.08,Single-ply,SBD,M
Boys,82.1,6,Dylan Honza,Ennis,78.02,165.56,111.13,181.44,458.13,Single-ply,SBD,M
Boys,82.1,7,Dequan Raindle,Corsicana,79.38,174.63,83.91,176.9,435.45,Single-ply,SBD,M
Boys,82.1,8,Chris Wallace,Tyler Chapel Hill,81.65,181.44,88.45,151.95,421.84,Single-ply,SBD,M
Boys,82.1,9,Clayton Goins,Corsicana,77.11,149.69,86.18,154.22,390.09,Single-ply,SBD,M
Boys,89.81,1,Dalton Snyder,Ennis,84.37,195.04,120.2,174.63,489.88,Single-ply,SBD,M
Boys,89.81,2,Dillon Atkins,Tyler Chapel Hill,89.36,156.49,81.65,167.83,405.97,Single-ply,SBD,M
Boys,89.81,3,Adam Stewart,Tyler Chapel Hill,87.09,142.88,86.18,172.37,401.43,Single-ply,SBD,M
Boys,89.81,DQ,Chris Edling,Corsicana,86.18,136.08,,,,Single-ply,SBD,M
Boys,99.79,1,Brandon Polk,Corsicana,97.07,226.8,113.4,226.8,566.99,Single-ply,SBD,M
Boys,99.79,2,M Faquir,Corsicana,98.43,197.31,113.4,226.8,537.51,Single-ply,SBD,M
Boys,99.79,3,Chonston Williams,Ennis,93.44,185.97,129.27,208.65,523.9,Single-ply,SBD,M
Boys,99.79,4,D Kelly,Corsicana,92.08,183.7,102.06,181.44,467.2,Single-ply,SBD,M
Boys,99.79,5,Jacob Williams,Corsicana,92.08,190.51,106.59,165.56,462.66,Single-ply,SBD,M
Boys,99.79,6,Hershal Hawkins,Tyler Chapel Hill,92.08,142.88,154.22,161.03,458.13,Single-ply,SBD,M
Boys,99.79,7,Floyd Shrestha,Corsicana,96.16,124.74,70.31,122.47,317.51,Single-ply,SBD,M
Boys,99.79,8,Dean Fletes,Corsicana,93.89,117.93,65.77,99.79,283.5,Single-ply,SBD,M
Boys,109.77,1,Rob Boyd,Ennis,109.32,222.26,158.76,242.67,623.69,Single-ply,SBD,M
Boys,109.77,2,Tj Carter,Ennis,102.97,226.8,124.74,238.14,589.67,Single-ply,SBD,M
Boys,109.77,3,Cooper Gillespie,Ennis,104.33,215.46,113.4,204.12,532.97,Single-ply,SBD,M
Boys,109.77,4,Colton Moorehead,Tyler Chapel Hill,106.59,165.56,111.13,172.37,449.06,Single-ply,SBD,M
Boys,124.74,1,Christian Ivy,Corsicana,124.28,215.46,136.08,222.26,573.79,Single-ply,SBD,M
Boys,124.74,2,Daniel Smith,Tyler Chapel Hill,117.48,172.37,108.86,181.44,462.66,Single-ply,SBD,M
Boys,124.74,3,D Undre Anderson,Tyler Chapel Hill,113.4,136.08,90.72,181.44,408.23,Single-ply,SBD,M
Boys,124.74+,1,James Brooks,Tyler Chapel Hill,147.87,199.58,115.67,188.24,503.49,Single-ply,SBD,M
