Name,Age,Equipment,Sex,Division,BodyweightKg,WeightClassKg,Squat1Kg,Squat2Kg,Squat3Kg,Best3SquatKg,Bench1Kg,Bench2Kg,Bench3Kg,Best3BenchKg,Deadlift1Kg,Deadlift2Kg,Deadlift3Kg,Best3DeadliftKg,TotalKg,Event,Place
Erin Zemanovic,46,Wraps,F,FM2R-AD,73.66,75,112.5,117.5,122.5,122.5,62.5,67.5,-70,67.5,120,130,-137.5,130,320,SBD,1
Traci Slane,47,Wraps,F,FM2R-AD,89.81,90,87.5,95,100,100,55,57.5,60,60,117.5,127.5,132.5,132.5,292.5,SBD,2
Barb Welp,45,Wraps,F,FM2R-AD,75.57,82.5,-85,85,95,95,52.5,55,-57.5,55,110,115,-120,115,265,SBD,3
Bethany Sibenaller,33,Wraps,F,FSR-AD,69.85,75,72.5,82.5,92.5,92.5,35,42.5,-47.5,42.5,72.5,82.5,92.5,92.5,227.5,SBD,1
Jocelyn Dagustino,29,Wraps,F,FOR-AD,51.07,52,70,75,-77.5,75,37.5,42.5,-45,42.5,82.5,87.5,-92.5,87.5,205,SBD,1
Kristy Kinney,24,Wraps,F,FOR-AD,79.2,82.5,75,82.5,90,90,37.5,40,45,45,90,100,-110,100,235,SBD,1
Amanda Shorter,24,Wraps,F,FOR-AD,89.81,90,85,97.5,110,110,52.5,60,-67.5,60,122.5,130,140,140,310,SBD,1
Katie Hanenburg,28,Wraps,F,FOR-AD,80.83,82.5,130,-142.5,142.5,142.5,57.5,65,-75,65,122.5,137.5,150,150,357.5,SBD,1
Whitney Hawkins,26,Wraps,F,FOR-AD,69.4,75,87.5,92.5,-95,92.5,52.5,-55,-55,52.5,130,142.5,150,150,295,SBD,1
Lexy Neitzel,25,Wraps,F,FOR-AD,74.03,75,100,107.5,115,115,52.5,60,-65,60,137.5,147.5,-155,147.5,322.5,SBD,1
Sheri Stiles,28,Wraps,F,FOR-AD,73.12,75,137.5,152.5,-162.5,152.5,70,77.5,85,85,157.5,172.5,187.5,187.5,425,SBD,1
Taylor Bittner,21,Wraps,F,FJR-AD,74.66,75,117.5,122.5,-127.5,122.5,75,77.5,-82.5,77.5,127.5,135,140,140,340,SBD,1
Remmington Layne,20,Wraps,F,FJR-AD,88.72,90,70,92.5,100,100,42.5,57.5,62.5,62.5,85,107.5,115,115,277.5,SBD,2
Eric Knudson,56,Multi-ply,M,MM4-AD,122.47,125,252.5,260,-272.5,260,-205,205,-215,205,167.5,177.5,185,185,650,SBD,1
Brian Riches,42,Wraps,M,MM1R-AD,142.16,140+,192.5,225,240,240,135,145,-155,145,205,227.5,250,250,635,SBD,2
Kevin Matthews,57,Wraps,M,MM4R-AD,97.61,100,-142.5,142.5,152.5,152.5,82.5,92.5,95,95,170,182.5,-187.5,182.5,430,SBD,3
Erik Peacock,44,Wraps,M,MM1R,98.88,100,142.5,162.5,-170,162.5,132.5,-137.5,-137.5,132.5,165,185,-197.5,185,480,SBD,4
David Bittner,50,Wraps,M,MM3R-AD,124.01,125,167.5,182.5,,182.5,-182.5,-182.5,-182.5,,217.5,,,217.5,,SBD,DQ
John Dean,35,Wraps,M,MSR,84.55,90,137.5,160,185,185,130,142.5,150,150,182.5,205,-230,205,540,SBD,1
Matthew Dale,26,Wraps,M,MOR,139.71,140,200,212.5,-225,212.5,-162.5,170,-175,170,205,215,-230,215,597.5,SBD,1
Fatih Velijoski,24,Wraps,M,MOR-AD,124.74,125,210,227.5,235,235,157.5,165,-175,165,210,227.5,-235,227.5,627.5,SBD,1
Rajih Yabani,24,Wraps,M,MOR,132.54,140,177.5,-192.5,192.5,192.5,-125,132.5,147.5,147.5,205,222.5,240,240,580,SBD,1
Alex Maas,26,Wraps,M,MOR,109.13,110,232.5,240,-247.5,240,160,165,-170,165,230,245,-257.5,245,650,SBD,1
Jacob Schroeder,30,Wraps,M,MOR-AD,136.08,140,200,220,227.5,227.5,140,147.5,155,155,240,260,-275,260,642.5,SBD,1
Curtis Krump,26,Wraps,M,MOR-AD,109.41,110,217.5,235,252.5,252.5,165,175,-180,175,260,282.5,-305,282.5,710,SBD,1
Mike Clare,29,Wraps,M,MOR-AD,108.32,110,132.5,142.5,150,150,120,130,137.5,137.5,175,192.5,205,205,492.5,SBD,1
Alex Tate,26,Wraps,M,MOR-AD,98.7,100,125,135,-150,135,-127.5,-127.5,127.5,127.5,192.5,202.5,210,210,472.5,SBD,1
Patrick Umphrey,39,Wraps,M,MOR,85.28,90,190,200,210,210,120,127.5,-132.5,127.5,190,202.5,210,210,547.5,SBD,1
Adyn Clausen,26,Wraps,M,MOR-AD,97.98,100,160,165,175,175,125,-132.5,-132.5,125,215,222.5,227.5,227.5,527.5,SBD,1
Gage Phillips,25,Wraps,M,MOR-AD,97.7,100,-220,220,235,235,137.5,145,-152.5,145,-227.5,232.5,242.5,242.5,622.5,SBD,1
Scott Peltier,27,Wraps,M,MOR-AD,98.79,100,197.5,-210,210,210,135,147.5,-152.5,147.5,220,237.5,245,245,602.5,SBD,1
Matt Wolf,25,Wraps,M,MOR-AD,102.24,110,227.5,237.5,-250,237.5,137.5,-145,145,145,227.5,240,255,255,637.5,SBD,1
Christian Cairy,25,Wraps,M,MOR-AD,87.63,90,-182.5,-195,195,195,107.5,115,-130,115,240,-260,-260,240,550,SBD,1
Thomas Bulau,29,Wraps,M,MOR-AD,86.45,90,-180,-180,-180,,125,,,125,200,,,200,,SBD,DQ
Justin Dunnell,20,Wraps,M,MJR,88.72,90,202.5,210,-215,210,152.5,162.5,-170,162.5,275,-282.5,-282.5,275,647.5,SBD,1
Noah Phillips,22,Wraps,M,MJR-AD,55.97,56,125,147.5,152.5,152.5,82.5,-92.5,95,95,130,137.5,165,165,412.5,SBD,2
Ferguson Lecher,20,Wraps,M,MJR-AD,105.05,110,200,215,-227.5,215,125,137.5,-155,137.5,250,270,280,280,632.5,SBD,3
Tyler Trent,21,Wraps,M,MJR-AD,81.74,82.5,160,-177.5,182.5,182.5,125,132.5,137.5,137.5,197.5,212.5,-227.5,212.5,532.5,SBD,4
Dallas Ferrell,21,Wraps,M,MJR,99.16,100,177.5,197.5,205,205,132.5,150,-157.5,150,-185,200,215,215,570,SBD,5
Matt Auger,19,Wraps,M,MT3R,107.77,110,267.5,287.5,-300,287.5,155,165,-172.5,165,310,-322.5,-322.5,310,762.5,SBD,1
Connor Bulau,19,Wraps,M,MT3R-AD,99.06,100,230,245,255,255,137.5,-145,145,145,227.5,247.5,-255,247.5,647.5,SBD,2
Jared King,19,Wraps,M,MT3R-AD,73.71,75,125,145,155,155,82.5,95,105,105,160,172.5,182.5,182.5,442.5,SBD,3
Eric Cox,15,Wraps,M,MT1R-AD,79.83,82.5,110,145,-155,145,75,-85,-87.5,75,152.5,167.5,185,185,405,SBD,4
Lisa Johnson,49,Raw,F,FM2R-AD,65.41,67.5,,,,,65,70,-75,70,,,,,70,B,1
Pat Overbo,52,Raw,F,FM3R-AD,79.38,82.5,,,,,60,65,-75,65,,,,,65,B,2
Scott Teska,53,Raw,M,MM3R-AD,99.52,100,,,,,-145,145,-155,145,,,,,145,B,1
Admichael Stiel,46,Raw,M,MM2R,145.15,140+,,,,,157.5,172.5,-185,172.5,,,,,172.5,B,2
Antonio Okamoto,17,Raw,M,MT2R,87.82,90,,,,,100,-110,110,110,182.5,195,202.5,202.5,312.5,BD,1
